{
  "annotations": {
    "list": [
      {
        "builtIn": 1,
        "datasource": "-- Grafana --",
        "enable": true,
        "hide": true,
        "iconColor": "rgba(0, 211, 255, 1)",
        "name": "Annotations & Alerts",
        "type": "dashboard"
      }
    ]
  },
  "editable": true,
  "gnetId": null,
  "graphTooltip": 0,
  "id": 61,
  "links": [],
  "panels": [
    {
      "datasource": null,
      "fieldConfig": {
        "defaults": {},
        "overrides": []
      },
      "gridPos": {
        "h": 3,
        "w": 24,
        "x": 0,
        "y": 0
      },
      "id": 7,
      "options": {
        "seriesCountSize": "sm",
        "showSeriesCount": false,
        "text": "Default value of text input option"
      },
      "pluginVersion": "7.5.3",
      "targets": [
        {
          "alias": "",
          "bucketAggs": [
            {
              "id": "2",
              "settings": {
                "interval": "auto"
              },
              "type": "date_histogram"
            }
          ],
          "metrics": [
            {
              "id": "1",
              "type": "count"
            }
          ],
          "query": "",
          "refId": "A",
          "timeField": "@timestamp"
        }
      ],
      "transparent": true,
      "type": "telconet-dash-menu"
    },
    {
      "collapsed": false,
      "datasource": null,
      "gridPos": {
        "h": 1,
        "w": 24,
        "x": 0,
        "y": 3
      },
      "id": 11,
      "panels": [],
      "title": "SISTEMA 1",
      "type": "row"
    },
    {
      "datasource": null,
      "fieldConfig": {
        "defaults": {},
        "overrides": []
      },
      "gridPos": {
        "h": 12,
        "w": 12,
        "x": 0,
        "y": 4
      },
      "id": 3,
      "options": {
        "seriesCountSize": "sm",
        "showSeriesCount": false,
        "text": "Default value of text input option"
      },
      "pluginVersion": "7.5.3",
      "targets": [
        {
          "alias": "",
          "bucketAggs": [
            {
              "field": "@timestamp",
              "id": "2",
              "settings": {
                "interval": "auto"
              },
              "type": "date_histogram"
            }
          ],
          "metrics": [
            {
              "field": "DATA.LEAVE_CHILL_TEMP.VALUE",
              "id": "1",
              "type": "avg"
            },
            {
              "field": "DATA.RET_CHILL_TEMP.VALUE",
              "id": "3",
              "type": "avg"
            },
            {
              "field": "DATA.SYS_1_COMP_RUN_ST.VALUE",
              "id": "5",
              "type": "avg"
            },
            {
              "field": "DATA.SYS1_OIL_TEMP.VALUE",
              "id": "6",
              "type": "avg"
            },
            {
              "field": "DATA.SYS1_SUC_PRESS.VALUE",
              "id": "7",
              "type": "avg"
            },
            {
              "field": "DATA.SYS1_DISC_PRESS.VALUE",
              "id": "8",
              "type": "avg"
            },
            {
              "field": "DATA.SYS1_TOTAL_RUN_HOURS.VALUE",
              "id": "9",
              "type": "avg"
            },
            {
              "field": "DATA.SYS2_COMP_RUN_ST.VALUE",
              "id": "10",
              "type": "avg"
            },
            {
              "field": "DATA.SYS2_OIL_TEMP.VALUE",
              "id": "11",
              "type": "avg"
            },
            {
              "field": "DATA.SYS2_SUCN_PRESS.VALUE",
              "id": "12",
              "type": "avg"
            },
            {
              "field": "DATA.SYS2_DISC_PRESS.VALUE",
              "id": "13",
              "type": "avg"
            },
            {
              "field": "DATA.SYS2_TOTAL_RUN_HOURS.VALUE",
              "id": "14",
              "type": "avg"
            },
            {
              "field": "DATA.CHILL_RUN.VALUE",
              "id": "15",
              "type": "avg"
            },
            {
              "field": "DATA.CHILL_ALARM.VALUE",
              "id": "17",
              "type": "avg"
            }
          ],
          "query": "EQUIPO:\"2/EA(1)\"",
          "refId": "A",
          "timeField": "@timestamp"
        },
        {
          "alias": "CHILL_CURR",
          "bucketAggs": [
            {
              "field": "@timestamp",
              "id": "2",
              "settings": {
                "interval": "auto"
              },
              "type": "date_histogram"
            }
          ],
          "hide": false,
          "metrics": [
            {
              "id": "1",
              "type": "count"
            }
          ],
          "query": "DATA.CH1_FLA.VALUE",
          "refId": "B",
          "timeField": "@timestamp"
        },
        {
          "alias": "CHILL_ORD",
          "bucketAggs": [
            {
              "field": "@timestamp",
              "id": "2",
              "settings": {
                "interval": "auto"
              },
              "type": "date_histogram"
            }
          ],
          "hide": false,
          "metrics": [
            {
              "field": "DATA.CH1_S.VALUE",
              "id": "1",
              "type": "avg"
            }
          ],
          "query": "EQUIPO:\"2/EA(1)\"",
          "refId": "C",
          "timeField": "@timestamp"
        },
        {
          "alias": "2/EA(1)",
          "bucketAggs": [
            {
              "id": "2",
              "settings": {
                "interval": "auto"
              },
              "type": "date_histogram"
            }
          ],
          "hide": false,
          "metrics": [
            {
              "id": "1",
              "type": "count"
            }
          ],
          "query": "",
          "refId": "D",
          "timeField": "@timestamp"
        }
      ],
      "transparent": true,
      "type": "telconet-grupal-chill"
    },
    {
      "datasource": null,
      "fieldConfig": {
        "defaults": {},
        "overrides": []
      },
      "gridPos": {
        "h": 12,
        "w": 12,
        "x": 12,
        "y": 4
      },
      "id": 2,
      "options": {
        "seriesCountSize": "sm",
        "showSeriesCount": false,
        "text": "Default value of text input option"
      },
      "pluginVersion": "7.5.3",
      "targets": [
        {
          "alias": "",
          "bucketAggs": [
            {
              "field": "@timestamp",
              "id": "2",
              "settings": {
                "interval": "auto"
              },
              "type": "date_histogram"
            }
          ],
          "metrics": [
            {
              "field": "DATA.LEAVE_CHILL_TEMP.VALUE",
              "id": "1",
              "type": "avg"
            },
            {
              "field": "DATA.RET_CHILL_TEMP.VALUE",
              "id": "3",
              "type": "avg"
            },
            {
              "field": "DATA.CH2_FLA.VALUE",
              "id": "4",
              "type": "avg"
            },
            {
              "field": "DATA.SYS_1_COMP_RUN_ST.VALUE",
              "id": "5",
              "type": "avg"
            },
            {
              "field": "DATA.SYS1_OIL_TEMP.VALUE",
              "id": "6",
              "type": "avg"
            },
            {
              "field": "DATA.SYS1_SUC_PRESS.VALUE",
              "id": "7",
              "type": "avg"
            },
            {
              "field": "DATA.SYS1_DISC_PRESS.VALUE",
              "id": "8",
              "type": "avg"
            },
            {
              "field": "DATA.SYS1_TOTAL_RUN_HOURS.VALUE",
              "id": "9",
              "type": "avg"
            },
            {
              "field": "DATA.SYS2_COMP_RUN_ST.VALUE",
              "id": "10",
              "type": "avg"
            },
            {
              "field": "DATA.SYS2_OIL_TEMP.VALUE",
              "id": "11",
              "type": "avg"
            },
            {
              "field": "DATA.SYS2_SUCN_PRESS.VALUE",
              "id": "12",
              "type": "avg"
            },
            {
              "field": "DATA.SYS2_DISC_PRESS.VALUE",
              "id": "13",
              "type": "avg"
            },
            {
              "field": "DATA.SYS2_TOTAL_RUN_HOURS.VALUE",
              "id": "14",
              "type": "avg"
            },
            {
              "field": "DATA.CHILL_RUN.VALUE",
              "id": "15",
              "type": "avg"
            },
            {
              "field": "DATA.CH2_S.VALUE",
              "id": "16",
              "type": "avg"
            },
            {
              "field": "DATA.CHILL_ALARM.VALUE",
              "id": "17",
              "type": "avg"
            }
          ],
          "query": "EQUIPO:\"2/EA(2)\"",
          "refId": "A",
          "timeField": "@timestamp"
        },
        {
          "alias": "CHILL_CURR",
          "bucketAggs": [
            {
              "id": "2",
              "settings": {
                "interval": "auto"
              },
              "type": "date_histogram"
            }
          ],
          "hide": false,
          "metrics": [
            {
              "id": "1",
              "type": "count"
            }
          ],
          "query": "DATA.CH2_FLA.VALUE",
          "refId": "B",
          "timeField": "@timestamp"
        },
        {
          "alias": "CHILL_ORD",
          "bucketAggs": [
            {
              "id": "2",
              "settings": {
                "interval": "auto"
              },
              "type": "date_histogram"
            }
          ],
          "hide": false,
          "metrics": [
            {
              "field": "DATA.CH2_S.VALUE",
              "id": "1",
              "type": "avg"
            }
          ],
          "query": "EQUIPO:\"2/EA(2)\"",
          "refId": "C",
          "timeField": "@timestamp"
        },
        {
          "alias": "2/EA(2)",
          "bucketAggs": [
            {
              "id": "2",
              "settings": {
                "interval": "auto"
              },
              "type": "date_histogram"
            }
          ],
          "hide": false,
          "metrics": [
            {
              "id": "1",
              "type": "count"
            }
          ],
          "query": "",
          "refId": "D",
          "timeField": "@timestamp"
        }
      ],
      "transparent": true,
      "type": "telconet-grupal-chill"
    },
    {
      "collapsed": false,
      "datasource": null,
      "gridPos": {
        "h": 1,
        "w": 24,
        "x": 0,
        "y": 16
      },
      "id": 9,
      "panels": [],
      "title": "SISTEMA 2",
      "type": "row"
    },
    {
      "datasource": null,
      "fieldConfig": {
        "defaults": {},
        "overrides": []
      },
      "gridPos": {
        "h": 12,
        "w": 12,
        "x": 0,
        "y": 17
      },
      "id": 4,
      "options": {
        "seriesCountSize": "sm",
        "showSeriesCount": false,
        "text": "Default value of text input option"
      },
      "pluginVersion": "7.5.3",
      "targets": [
        {
          "alias": "",
          "bucketAggs": [
            {
              "field": "@timestamp",
              "id": "2",
              "settings": {
                "interval": "auto"
              },
              "type": "date_histogram"
            }
          ],
          "metrics": [
            {
              "field": "DATA.LEAVE_CHILL_TEMP.VALUE",
              "id": "1",
              "type": "avg"
            },
            {
              "field": "DATA.RET_CHILL_TEMP.VALUE",
              "id": "3",
              "type": "avg"
            },
            {
              "field": "DATA.SYS_1_COMP_RUN_ST.VALUE",
              "id": "5",
              "type": "avg"
            },
            {
              "field": "DATA.SYS1_OIL_TEMP.VALUE",
              "id": "6",
              "type": "avg"
            },
            {
              "field": "DATA.SYS1_SUC_PRESS.VALUE",
              "id": "7",
              "type": "avg"
            },
            {
              "field": "DATA.SYS1_DISC_PRESS.VALUE",
              "id": "8",
              "type": "avg"
            },
            {
              "field": "DATA.SYS1_TOTAL_RUN_HOURS.VALUE",
              "id": "9",
              "type": "avg"
            },
            {
              "field": "DATA.SYS2_COMP_RUN_ST.VALUE",
              "id": "10",
              "type": "avg"
            },
            {
              "field": "DATA.SYS2_OIL_TEMP.VALUE",
              "id": "11",
              "type": "avg"
            },
            {
              "field": "DATA.SYS2_SUCN_PRESS.VALUE",
              "id": "12",
              "type": "avg"
            },
            {
              "field": "DATA.SYS2_DISC_PRESS.VALUE",
              "id": "13",
              "type": "avg"
            },
            {
              "field": "DATA.SYS2_TOTAL_RUN_HOURS.VALUE",
              "id": "14",
              "type": "avg"
            },
            {
              "field": "DATA.CHILL_RUN.VALUE",
              "id": "15",
              "type": "avg"
            },
            {
              "field": "DATA.CHILL_ALARM.VALUE",
              "id": "17",
              "type": "avg"
            }
          ],
          "query": "EQUIPO:\"2/EA(3)\"",
          "refId": "A",
          "timeField": "@timestamp"
        },
        {
          "alias": "CHILL_CURR",
          "bucketAggs": [
            {
              "id": "2",
              "settings": {
                "interval": "auto"
              },
              "type": "date_histogram"
            }
          ],
          "hide": false,
          "metrics": [
            {
              "id": "1",
              "type": "count"
            }
          ],
          "query": "DATA.CH1_FLA.VALUE",
          "refId": "B",
          "timeField": "@timestamp"
        },
        {
          "alias": "CHILL_ORD",
          "bucketAggs": [
            {
              "field": "@timestamp",
              "id": "2",
              "settings": {
                "interval": "auto"
              },
              "type": "date_histogram"
            }
          ],
          "hide": false,
          "metrics": [
            {
              "field": "DATA.CH1_S.VALUE",
              "id": "1",
              "type": "avg"
            }
          ],
          "query": "EQUIPO:\"2/EA(3)\"",
          "refId": "C",
          "timeField": "@timestamp"
        },
        {
          "alias": "2/EA(3)",
          "bucketAggs": [
            {
              "id": "2",
              "settings": {
                "interval": "auto"
              },
              "type": "date_histogram"
            }
          ],
          "hide": false,
          "metrics": [
            {
              "id": "1",
              "type": "count"
            }
          ],
          "query": "",
          "refId": "D",
          "timeField": "@timestamp"
        }
      ],
      "transparent": true,
      "type": "telconet-grupal-chill"
    },
    {
      "datasource": null,
      "fieldConfig": {
        "defaults": {},
        "overrides": []
      },
      "gridPos": {
        "h": 12,
        "w": 12,
        "x": 12,
        "y": 17
      },
      "id": 5,
      "options": {
        "seriesCountSize": "sm",
        "showSeriesCount": false,
        "text": "Default value of text input option"
      },
      "pluginVersion": "7.5.3",
      "targets": [
        {
          "alias": "",
          "bucketAggs": [
            {
              "field": "@timestamp",
              "id": "2",
              "settings": {
                "interval": "auto"
              },
              "type": "date_histogram"
            }
          ],
          "metrics": [
            {
              "field": "DATA.LEAVE_CHILL_TEMP.VALUE",
              "id": "1",
              "type": "avg"
            },
            {
              "field": "DATA.RET_CHILL_TEMP.VALUE",
              "id": "3",
              "type": "avg"
            },
            {
              "field": "DATA.SYS_1_COMP_RUN_ST.VALUE",
              "id": "5",
              "type": "avg"
            },
            {
              "field": "DATA.SYS1_OIL_TEMP.VALUE",
              "id": "6",
              "type": "avg"
            },
            {
              "field": "DATA.SYS1_SUC_PRESS.VALUE",
              "id": "7",
              "type": "avg"
            },
            {
              "field": "DATA.SYS1_DISC_PRESS.VALUE",
              "id": "8",
              "type": "avg"
            },
            {
              "field": "DATA.SYS1_TOTAL_RUN_HOURS.VALUE",
              "id": "9",
              "type": "avg"
            },
            {
              "field": "DATA.SYS2_COMP_RUN_ST.VALUE",
              "id": "10",
              "type": "avg"
            },
            {
              "field": "DATA.SYS2_OIL_TEMP.VALUE",
              "id": "11",
              "type": "avg"
            },
            {
              "field": "DATA.SYS2_SUCN_PRESS.VALUE",
              "id": "12",
              "type": "avg"
            },
            {
              "field": "DATA.SYS2_DISC_PRESS.VALUE",
              "id": "13",
              "type": "avg"
            },
            {
              "field": "DATA.SYS2_TOTAL_RUN_HOURS.VALUE",
              "id": "14",
              "type": "avg"
            },
            {
              "field": "DATA.CHILL_RUN.VALUE",
              "id": "15",
              "type": "avg"
            },
            {
              "field": "DATA.CHILL_ALARM.VALUE",
              "id": "17",
              "type": "avg"
            }
          ],
          "query": "EQUIPO:\"2/EA(4)\"",
          "refId": "A",
          "timeField": "@timestamp"
        },
        {
          "alias": "CHILL_CURR",
          "bucketAggs": [
            {
              "id": "2",
              "settings": {
                "interval": "auto"
              },
              "type": "date_histogram"
            }
          ],
          "hide": false,
          "metrics": [
            {
              "id": "1",
              "type": "count"
            }
          ],
          "query": "DATA.CH2_FLA.VALUE",
          "refId": "B",
          "timeField": "@timestamp"
        },
        {
          "alias": "CHILL_ORD",
          "bucketAggs": [
            {
              "id": "2",
              "settings": {
                "interval": "auto"
              },
              "type": "date_histogram"
            }
          ],
          "hide": false,
          "metrics": [
            {
              "field": "DATA.CH2_S.VALUE",
              "id": "1",
              "type": "avg"
            }
          ],
          "query": "EQUIPO:\"2/EA(4)\"",
          "refId": "C",
          "timeField": "@timestamp"
        },
        {
          "alias": "2/EA(4)",
          "bucketAggs": [
            {
              "field": "@timestamp",
              "id": "2",
              "settings": {
                "interval": "auto"
              },
              "type": "date_histogram"
            }
          ],
          "hide": false,
          "metrics": [
            {
              "field": "DATA.CH2_S.VALUE",
              "id": "1",
              "type": "avg"
            }
          ],
          "query": "EQUIPO:\"2/EA(4)\"",
          "refId": "D",
          "timeField": "@timestamp"
        }
      ],
      "transparent": true,
      "type": "telconet-grupal-chill"
    }
  ],
  "refresh": "5s",
  "schemaVersion": 27,
  "style": "dark",
  "tags": [],
  "templating": {
    "list": []
  },
  "time": {
    "from": "now-1h",
    "to": "now"
  },
  "timepicker": {},
  "timezone": "",
  "title": "GRUPAL_CHILL",
  "uid": "zuwosVXMz",
  "version": 6
}