{
  "annotations": {
    "list": [
      {
        "builtIn": 1,
        "datasource": "-- Grafana --",
        "enable": true,
        "hide": true,
        "iconColor": "rgba(0, 211, 255, 1)",
        "name": "Annotations & Alerts",
        "type": "dashboard"
      }
    ]
  },
  "editable": true,
  "gnetId": null,
  "graphTooltip": 0,
  "id": 103,
  "links": [],
  "panels": [
    {
      "datasource": null,
      "fieldConfig": {
        "defaults": {},
        "overrides": []
      },
      "gridPos": {
        "h": 2,
        "w": 24,
        "x": 0,
        "y": 0
      },
      "id": 11,
      "options": {
        "seriesCountSize": "sm",
        "showSeriesCount": false,
        "text": "Default value of text input option"
      },
      "pluginVersion": "7.5.3",
      "targets": [
        {
          "alias": "",
          "bucketAggs": [
            {
              "id": "2",
              "settings": {
                "interval": "auto"
              },
              "type": "date_histogram"
            }
          ],
          "metrics": [
            {
              "id": "1",
              "type": "count"
            }
          ],
          "query": "",
          "refId": "A",
          "timeField": "@timestamp"
        }
      ],
      "timeFrom": null,
      "timeShift": null,
      "transparent": true,
      "type": "pac-menu-arq"
    },
    {
      "datasource": "-- Mixed --",
      "fieldConfig": {
        "defaults": {},
        "overrides": []
      },
      "gridPos": {
        "h": 10,
        "w": 8,
        "x": 0,
        "y": 2
      },
      "id": 4,
      "options": {
        "seriesCountSize": "sm",
        "showSeriesCount": false,
        "text": "Default value of text input option"
      },
      "pluginVersion": "7.5.3",
      "targets": [
        {
          "alias": "",
          "application": {
            "filter": "A01-Ping"
          },
          "bucketAggs": [
            {
              "id": "2",
              "settings": {
                "interval": "auto"
              },
              "type": "date_histogram"
            }
          ],
          "datasource": "Zabbix54",
          "functions": [
            {
              "$$hashKey": "object:37",
              "def": {
                "category": "Alias",
                "defaultParams": [],
                "name": "setAlias",
                "params": [
                  {
                    "name": "alias",
                    "type": "string"
                  }
                ]
              },
              "params": [
                "ESTADO"
              ],
              "text": "setAlias(ESTADO)"
            }
          ],
          "group": {
            "filter": "EQUIPOS_PAC"
          },
          "host": {
            "filter": "SW1CUARTOELECTRICO2A"
          },
          "item": {
            "filter": "A11-ICMP ping"
          },
          "metrics": [
            {
              "id": "1",
              "type": "count"
            }
          ],
          "options": {
            "disableDataAlignment": false,
            "showDisabledItems": false,
            "skipEmptyValues": false,
            "useZabbixValueMapping": false
          },
          "proxy": {
            "filter": ""
          },
          "query": "",
          "queryType": 0,
          "refId": "A",
          "resultFormat": "time_series",
          "table": {
            "skipEmptyValues": false
          },
          "tags": {
            "filter": ""
          },
          "timeField": "@timestamp",
          "trigger": {
            "filter": ""
          },
          "triggers": {
            "acknowledged": 2,
            "count": true,
            "minSeverity": 3
          }
        },
        {
          "alias": "",
          "application": {
            "filter": "STF00-Fans"
          },
          "bucketAggs": [
            {
              "id": "2",
              "settings": {
                "interval": "auto"
              },
              "type": "date_histogram"
            }
          ],
          "datasource": "Zabbix54",
          "functions": [
            {
              "$$hashKey": "object:78",
              "def": {
                "category": "Alias",
                "defaultParams": [],
                "name": "setAlias",
                "params": [
                  {
                    "name": "alias",
                    "type": "string"
                  }
                ]
              },
              "params": [
                "ST_FAN"
              ],
              "text": "setAlias(ST_FAN)"
            }
          ],
          "group": {
            "filter": "EQUIPOS_PAC"
          },
          "hide": false,
          "host": {
            "filter": "SW1CUARTOELECTRICO2A"
          },
          "item": {
            "filter": "Switch#1, Fan#1 STF01- Fan status"
          },
          "metrics": [
            {
              "id": "1",
              "type": "count"
            }
          ],
          "options": {
            "disableDataAlignment": false,
            "showDisabledItems": false,
            "skipEmptyValues": false,
            "useZabbixValueMapping": false
          },
          "proxy": {
            "filter": ""
          },
          "query": "",
          "queryType": 0,
          "refId": "B",
          "resultFormat": "time_series",
          "table": {
            "skipEmptyValues": false
          },
          "tags": {
            "filter": ""
          },
          "timeField": "@timestamp",
          "trigger": {
            "filter": ""
          },
          "triggers": {
            "acknowledged": 2,
            "count": true,
            "minSeverity": 3
          }
        },
        {
          "alias": "",
          "application": {
            "filter": "STC00-CPU"
          },
          "bucketAggs": [
            {
              "id": "2",
              "settings": {
                "interval": "auto"
              },
              "type": "date_histogram"
            }
          ],
          "datasource": "Zabbix54",
          "functions": [
            {
              "$$hashKey": "object:99",
              "def": {
                "category": "Alias",
                "defaultParams": [],
                "name": "setAlias",
                "params": [
                  {
                    "name": "alias",
                    "type": "string"
                  }
                ]
              },
              "params": [
                "CPU"
              ],
              "text": "setAlias(CPU)"
            }
          ],
          "group": {
            "filter": "EQUIPOS_PAC"
          },
          "hide": false,
          "host": {
            "filter": "SW1CUARTOELECTRICO2A"
          },
          "item": {
            "filter": "STC00-CPU Utilizado 1"
          },
          "metrics": [
            {
              "id": "1",
              "type": "count"
            }
          ],
          "options": {
            "disableDataAlignment": false,
            "showDisabledItems": false,
            "skipEmptyValues": false,
            "useZabbixValueMapping": false
          },
          "proxy": {
            "filter": ""
          },
          "query": "",
          "queryType": 0,
          "refId": "C",
          "resultFormat": "time_series",
          "table": {
            "skipEmptyValues": false
          },
          "tags": {
            "filter": ""
          },
          "timeField": "@timestamp",
          "trigger": {
            "filter": ""
          },
          "triggers": {
            "acknowledged": 2,
            "count": true,
            "minSeverity": 3
          }
        },
        {
          "alias": "",
          "application": {
            "filter": "STM00-Memory"
          },
          "bucketAggs": [
            {
              "id": "2",
              "settings": {
                "interval": "auto"
              },
              "type": "date_histogram"
            }
          ],
          "datasource": "Zabbix54",
          "functions": [
            {
              "$$hashKey": "object:120",
              "def": {
                "category": "Alias",
                "defaultParams": [],
                "name": "setAlias",
                "params": [
                  {
                    "name": "alias",
                    "type": "string"
                  }
                ]
              },
              "params": [
                "RAM"
              ],
              "text": "setAlias(RAM)"
            }
          ],
          "group": {
            "filter": "EQUIPOS_PAC"
          },
          "hide": false,
          "host": {
            "filter": "SW1CUARTOELECTRICO2A"
          },
          "item": {
            "filter": "Processor: STM02-Memoria Utilizada %"
          },
          "metrics": [
            {
              "id": "1",
              "type": "count"
            }
          ],
          "options": {
            "disableDataAlignment": false,
            "showDisabledItems": false,
            "skipEmptyValues": false,
            "useZabbixValueMapping": false
          },
          "proxy": {
            "filter": ""
          },
          "query": "",
          "queryType": 0,
          "refId": "D",
          "resultFormat": "time_series",
          "table": {
            "skipEmptyValues": false
          },
          "tags": {
            "filter": ""
          },
          "timeField": "@timestamp",
          "trigger": {
            "filter": ""
          },
          "triggers": {
            "acknowledged": 2,
            "count": true,
            "minSeverity": 3
          }
        },
        {
          "alias": "",
          "application": {
            "filter": "A01-Ping"
          },
          "bucketAggs": [
            {
              "id": "2",
              "settings": {
                "interval": "auto"
              },
              "type": "date_histogram"
            }
          ],
          "datasource": "Zabbix54",
          "functions": [
            {
              "$$hashKey": "object:141",
              "def": {
                "category": "Alias",
                "defaultParams": [],
                "name": "setAlias",
                "params": [
                  {
                    "name": "alias",
                    "type": "string"
                  }
                ]
              },
              "params": [
                "TRES"
              ],
              "text": "setAlias(TRES)"
            }
          ],
          "group": {
            "filter": "EQUIPOS_PAC"
          },
          "hide": false,
          "host": {
            "filter": "SW1CUARTOELECTRICO2A"
          },
          "item": {
            "filter": "A12-ICMP response time"
          },
          "metrics": [
            {
              "id": "1",
              "type": "count"
            }
          ],
          "options": {
            "disableDataAlignment": false,
            "showDisabledItems": false,
            "skipEmptyValues": false,
            "useZabbixValueMapping": false
          },
          "proxy": {
            "filter": ""
          },
          "query": "",
          "queryType": 0,
          "refId": "E",
          "resultFormat": "time_series",
          "table": {
            "skipEmptyValues": false
          },
          "tags": {
            "filter": ""
          },
          "timeField": "@timestamp",
          "trigger": {
            "filter": ""
          },
          "triggers": {
            "acknowledged": 2,
            "count": true,
            "minSeverity": 3
          }
        },
        {
          "alias": "SW1CUARTOELECTRICO2A",
          "bucketAggs": [
            {
              "id": "2",
              "settings": {
                "interval": "auto"
              },
              "type": "date_histogram"
            }
          ],
          "datasource": "Elasticsearch",
          "hide": false,
          "metrics": [
            {
              "id": "1",
              "type": "count"
            }
          ],
          "query": "",
          "refId": "NOM",
          "timeField": "@timestamp"
        }
      ],
      "transparent": true,
      "type": "telconet-grupal-sw"
    },
    {
      "datasource": "-- Mixed --",
      "fieldConfig": {
        "defaults": {},
        "overrides": []
      },
      "gridPos": {
        "h": 10,
        "w": 8,
        "x": 8,
        "y": 2
      },
      "id": 7,
      "options": {
        "seriesCountSize": "sm",
        "showSeriesCount": false,
        "text": "Default value of text input option"
      },
      "pluginVersion": "7.5.3",
      "targets": [
        {
          "alias": "",
          "application": {
            "filter": "A01-Ping"
          },
          "bucketAggs": [
            {
              "id": "2",
              "settings": {
                "interval": "auto"
              },
              "type": "date_histogram"
            }
          ],
          "datasource": "Zabbix54",
          "functions": [
            {
              "$$hashKey": "object:328",
              "def": {
                "category": "Alias",
                "defaultParams": [],
                "name": "setAlias",
                "params": [
                  {
                    "name": "alias",
                    "type": "string"
                  }
                ]
              },
              "params": [
                "ESTADO"
              ],
              "text": "setAlias(ESTADO)"
            }
          ],
          "group": {
            "filter": "EQUIPOS_PAC"
          },
          "host": {
            "filter": "SW1CUARTOELECTRICO2B"
          },
          "item": {
            "filter": "A11-ICMP ping"
          },
          "metrics": [
            {
              "id": "1",
              "type": "count"
            }
          ],
          "options": {
            "disableDataAlignment": false,
            "showDisabledItems": false,
            "skipEmptyValues": false,
            "useZabbixValueMapping": false
          },
          "proxy": {
            "filter": ""
          },
          "query": "",
          "queryType": 0,
          "refId": "A",
          "resultFormat": "time_series",
          "table": {
            "skipEmptyValues": false
          },
          "tags": {
            "filter": ""
          },
          "timeField": "@timestamp",
          "trigger": {
            "filter": ""
          },
          "triggers": {
            "acknowledged": 2,
            "count": true,
            "minSeverity": 3
          }
        },
        {
          "alias": "",
          "application": {
            "filter": "STF00-Fans"
          },
          "bucketAggs": [
            {
              "id": "2",
              "settings": {
                "interval": "auto"
              },
              "type": "date_histogram"
            }
          ],
          "datasource": "Zabbix54",
          "functions": [
            {
              "$$hashKey": "object:349",
              "def": {
                "category": "Alias",
                "defaultParams": [],
                "name": "setAlias",
                "params": [
                  {
                    "name": "alias",
                    "type": "string"
                  }
                ]
              },
              "params": [
                "ST_FAN"
              ],
              "text": "setAlias(ST_FAN)"
            }
          ],
          "group": {
            "filter": "EQUIPOS_PAC"
          },
          "hide": false,
          "host": {
            "filter": "SW1CUARTOELECTRICO2B"
          },
          "item": {
            "filter": "Switch#1, Fan#1 STF01- Fan status"
          },
          "metrics": [
            {
              "id": "1",
              "type": "count"
            }
          ],
          "options": {
            "disableDataAlignment": false,
            "showDisabledItems": false,
            "skipEmptyValues": false,
            "useZabbixValueMapping": false
          },
          "proxy": {
            "filter": ""
          },
          "query": "",
          "queryType": 0,
          "refId": "B",
          "resultFormat": "time_series",
          "table": {
            "skipEmptyValues": false
          },
          "tags": {
            "filter": ""
          },
          "timeField": "@timestamp",
          "trigger": {
            "filter": ""
          },
          "triggers": {
            "acknowledged": 2,
            "count": true,
            "minSeverity": 3
          }
        },
        {
          "alias": "",
          "application": {
            "filter": "STC00-CPU"
          },
          "bucketAggs": [
            {
              "id": "2",
              "settings": {
                "interval": "auto"
              },
              "type": "date_histogram"
            }
          ],
          "datasource": "Zabbix54",
          "functions": [
            {
              "$$hashKey": "object:370",
              "def": {
                "category": "Alias",
                "defaultParams": [],
                "name": "setAlias",
                "params": [
                  {
                    "name": "alias",
                    "type": "string"
                  }
                ]
              },
              "params": [
                "CPU"
              ],
              "text": "setAlias(CPU)"
            }
          ],
          "group": {
            "filter": "EQUIPOS_PAC"
          },
          "hide": false,
          "host": {
            "filter": "SW1CUARTOELECTRICO2B"
          },
          "item": {
            "filter": "STC00-CPU Utilizado 1"
          },
          "metrics": [
            {
              "id": "1",
              "type": "count"
            }
          ],
          "options": {
            "disableDataAlignment": false,
            "showDisabledItems": false,
            "skipEmptyValues": false,
            "useZabbixValueMapping": false
          },
          "proxy": {
            "filter": ""
          },
          "query": "",
          "queryType": 0,
          "refId": "C",
          "resultFormat": "time_series",
          "table": {
            "skipEmptyValues": false
          },
          "tags": {
            "filter": ""
          },
          "timeField": "@timestamp",
          "trigger": {
            "filter": ""
          },
          "triggers": {
            "acknowledged": 2,
            "count": true,
            "minSeverity": 3
          }
        },
        {
          "alias": "",
          "application": {
            "filter": "STM00-Memory"
          },
          "bucketAggs": [
            {
              "id": "2",
              "settings": {
                "interval": "auto"
              },
              "type": "date_histogram"
            }
          ],
          "datasource": "Zabbix54",
          "functions": [
            {
              "$$hashKey": "object:391",
              "def": {
                "category": "Alias",
                "defaultParams": [],
                "name": "setAlias",
                "params": [
                  {
                    "name": "alias",
                    "type": "string"
                  }
                ]
              },
              "params": [
                "RAM"
              ],
              "text": "setAlias(RAM)"
            }
          ],
          "group": {
            "filter": "EQUIPOS_PAC"
          },
          "hide": false,
          "host": {
            "filter": "SW1CUARTOELECTRICO2B"
          },
          "item": {
            "filter": "Processor: STM02-Memoria Utilizada %"
          },
          "metrics": [
            {
              "id": "1",
              "type": "count"
            }
          ],
          "options": {
            "disableDataAlignment": false,
            "showDisabledItems": false,
            "skipEmptyValues": false,
            "useZabbixValueMapping": false
          },
          "proxy": {
            "filter": ""
          },
          "query": "",
          "queryType": 0,
          "refId": "D",
          "resultFormat": "time_series",
          "table": {
            "skipEmptyValues": false
          },
          "tags": {
            "filter": ""
          },
          "timeField": "@timestamp",
          "trigger": {
            "filter": ""
          },
          "triggers": {
            "acknowledged": 2,
            "count": true,
            "minSeverity": 3
          }
        },
        {
          "alias": "",
          "application": {
            "filter": "A01-Ping"
          },
          "bucketAggs": [
            {
              "id": "2",
              "settings": {
                "interval": "auto"
              },
              "type": "date_histogram"
            }
          ],
          "datasource": "Zabbix54",
          "functions": [
            {
              "$$hashKey": "object:412",
              "def": {
                "category": "Alias",
                "defaultParams": [],
                "name": "setAlias",
                "params": [
                  {
                    "name": "alias",
                    "type": "string"
                  }
                ]
              },
              "params": [
                "TRES"
              ],
              "text": "setAlias(TRES)"
            }
          ],
          "group": {
            "filter": "EQUIPOS_PAC"
          },
          "hide": false,
          "host": {
            "filter": "SW1CUARTOELECTRICO2B"
          },
          "item": {
            "filter": "A12-ICMP response time"
          },
          "metrics": [
            {
              "id": "1",
              "type": "count"
            }
          ],
          "options": {
            "disableDataAlignment": false,
            "showDisabledItems": false,
            "skipEmptyValues": false,
            "useZabbixValueMapping": false
          },
          "proxy": {
            "filter": ""
          },
          "query": "",
          "queryType": 0,
          "refId": "E",
          "resultFormat": "time_series",
          "table": {
            "skipEmptyValues": false
          },
          "tags": {
            "filter": ""
          },
          "timeField": "@timestamp",
          "trigger": {
            "filter": ""
          },
          "triggers": {
            "acknowledged": 2,
            "count": true,
            "minSeverity": 3
          }
        },
        {
          "alias": "SW1CUARTOELECTRICO2B",
          "bucketAggs": [
            {
              "id": "2",
              "settings": {
                "interval": "auto"
              },
              "type": "date_histogram"
            }
          ],
          "datasource": "Elasticsearch",
          "hide": false,
          "metrics": [
            {
              "id": "1",
              "type": "count"
            }
          ],
          "query": "",
          "refId": "NOM",
          "timeField": "@timestamp"
        }
      ],
      "transparent": true,
      "type": "telconet-grupal-sw"
    },
    {
      "datasource": "-- Mixed --",
      "fieldConfig": {
        "defaults": {},
        "overrides": []
      },
      "gridPos": {
        "h": 10,
        "w": 8,
        "x": 16,
        "y": 2
      },
      "id": 8,
      "options": {
        "seriesCountSize": "sm",
        "showSeriesCount": false,
        "text": "Default value of text input option"
      },
      "pluginVersion": "7.5.3",
      "targets": [
        {
          "alias": "",
          "application": {
            "filter": "A01-Ping"
          },
          "bucketAggs": [
            {
              "id": "2",
              "settings": {
                "interval": "auto"
              },
              "type": "date_histogram"
            }
          ],
          "datasource": "Zabbix54",
          "functions": [
            {
              "$$hashKey": "object:463",
              "def": {
                "category": "Alias",
                "defaultParams": [],
                "name": "setAlias",
                "params": [
                  {
                    "name": "alias",
                    "type": "string"
                  }
                ]
              },
              "params": [
                "ESTADO"
              ],
              "text": "setAlias(ESTADO)"
            }
          ],
          "group": {
            "filter": "EQUIPOS_PAC"
          },
          "host": {
            "filter": "SW1SISTEMAADCUIO"
          },
          "item": {
            "filter": "A11-ICMP ping"
          },
          "metrics": [
            {
              "id": "1",
              "type": "count"
            }
          ],
          "options": {
            "disableDataAlignment": false,
            "showDisabledItems": false,
            "skipEmptyValues": false,
            "useZabbixValueMapping": false
          },
          "proxy": {
            "filter": ""
          },
          "query": "",
          "queryType": 0,
          "refId": "A",
          "resultFormat": "time_series",
          "table": {
            "skipEmptyValues": false
          },
          "tags": {
            "filter": ""
          },
          "timeField": "@timestamp",
          "trigger": {
            "filter": ""
          },
          "triggers": {
            "acknowledged": 2,
            "count": true,
            "minSeverity": 3
          }
        },
        {
          "alias": "",
          "application": {
            "filter": "STF00-Fans"
          },
          "bucketAggs": [
            {
              "id": "2",
              "settings": {
                "interval": "auto"
              },
              "type": "date_histogram"
            }
          ],
          "datasource": "Zabbix54",
          "functions": [
            {
              "$$hashKey": "object:484",
              "def": {
                "category": "Alias",
                "defaultParams": [],
                "name": "setAlias",
                "params": [
                  {
                    "name": "alias",
                    "type": "string"
                  }
                ]
              },
              "params": [
                "ST_FAN"
              ],
              "text": "setAlias(ST_FAN)"
            }
          ],
          "group": {
            "filter": "EQUIPOS_PAC"
          },
          "hide": false,
          "host": {
            "filter": "SW1SISTEMAADCUIO"
          },
          "item": {
            "filter": "Switch#1, Fan#1 STF01- Fan status"
          },
          "metrics": [
            {
              "id": "1",
              "type": "count"
            }
          ],
          "options": {
            "disableDataAlignment": false,
            "showDisabledItems": false,
            "skipEmptyValues": false,
            "useZabbixValueMapping": false
          },
          "proxy": {
            "filter": ""
          },
          "query": "",
          "queryType": 0,
          "refId": "B",
          "resultFormat": "time_series",
          "table": {
            "skipEmptyValues": false
          },
          "tags": {
            "filter": ""
          },
          "timeField": "@timestamp",
          "trigger": {
            "filter": ""
          },
          "triggers": {
            "acknowledged": 2,
            "count": true,
            "minSeverity": 3
          }
        },
        {
          "alias": "",
          "application": {
            "filter": "STC00-CPU"
          },
          "bucketAggs": [
            {
              "id": "2",
              "settings": {
                "interval": "auto"
              },
              "type": "date_histogram"
            }
          ],
          "datasource": "Zabbix54",
          "functions": [
            {
              "$$hashKey": "object:505",
              "def": {
                "category": "Alias",
                "defaultParams": [],
                "name": "setAlias",
                "params": [
                  {
                    "name": "alias",
                    "type": "string"
                  }
                ]
              },
              "params": [
                "CPU"
              ],
              "text": "setAlias(CPU)"
            }
          ],
          "group": {
            "filter": "EQUIPOS_PAC"
          },
          "hide": false,
          "host": {
            "filter": "SW1SISTEMAADCUIO"
          },
          "item": {
            "filter": "STC00-CPU Utilizado 1"
          },
          "metrics": [
            {
              "id": "1",
              "type": "count"
            }
          ],
          "options": {
            "disableDataAlignment": false,
            "showDisabledItems": false,
            "skipEmptyValues": false,
            "useZabbixValueMapping": false
          },
          "proxy": {
            "filter": ""
          },
          "query": "",
          "queryType": 0,
          "refId": "C",
          "resultFormat": "time_series",
          "table": {
            "skipEmptyValues": false
          },
          "tags": {
            "filter": ""
          },
          "timeField": "@timestamp",
          "trigger": {
            "filter": ""
          },
          "triggers": {
            "acknowledged": 2,
            "count": true,
            "minSeverity": 3
          }
        },
        {
          "alias": "",
          "application": {
            "filter": "STM00-Memory"
          },
          "bucketAggs": [
            {
              "id": "2",
              "settings": {
                "interval": "auto"
              },
              "type": "date_histogram"
            }
          ],
          "datasource": "Zabbix54",
          "functions": [
            {
              "$$hashKey": "object:526",
              "def": {
                "category": "Alias",
                "defaultParams": [],
                "name": "setAlias",
                "params": [
                  {
                    "name": "alias",
                    "type": "string"
                  }
                ]
              },
              "params": [
                "RAM"
              ],
              "text": "setAlias(RAM)"
            }
          ],
          "group": {
            "filter": "EQUIPOS_PAC"
          },
          "hide": false,
          "host": {
            "filter": "SW1SISTEMAADCUIO"
          },
          "item": {
            "filter": "Processor: STM02-Memoria Utilizada %"
          },
          "metrics": [
            {
              "id": "1",
              "type": "count"
            }
          ],
          "options": {
            "disableDataAlignment": false,
            "showDisabledItems": false,
            "skipEmptyValues": false,
            "useZabbixValueMapping": false
          },
          "proxy": {
            "filter": ""
          },
          "query": "",
          "queryType": 0,
          "refId": "D",
          "resultFormat": "time_series",
          "table": {
            "skipEmptyValues": false
          },
          "tags": {
            "filter": ""
          },
          "timeField": "@timestamp",
          "trigger": {
            "filter": ""
          },
          "triggers": {
            "acknowledged": 2,
            "count": true,
            "minSeverity": 3
          }
        },
        {
          "alias": "",
          "application": {
            "filter": "A01-Ping"
          },
          "bucketAggs": [
            {
              "id": "2",
              "settings": {
                "interval": "auto"
              },
              "type": "date_histogram"
            }
          ],
          "datasource": "Zabbix54",
          "functions": [
            {
              "$$hashKey": "object:547",
              "def": {
                "category": "Alias",
                "defaultParams": [],
                "name": "setAlias",
                "params": [
                  {
                    "name": "alias",
                    "type": "string"
                  }
                ]
              },
              "params": [
                "TRES"
              ],
              "text": "setAlias(TRES)"
            }
          ],
          "group": {
            "filter": "EQUIPOS_PAC"
          },
          "hide": false,
          "host": {
            "filter": "SW1SISTEMAADCUIO"
          },
          "item": {
            "filter": "A12-ICMP response time"
          },
          "metrics": [
            {
              "id": "1",
              "type": "count"
            }
          ],
          "options": {
            "disableDataAlignment": false,
            "showDisabledItems": false,
            "skipEmptyValues": false,
            "useZabbixValueMapping": false
          },
          "proxy": {
            "filter": ""
          },
          "query": "",
          "queryType": 0,
          "refId": "E",
          "resultFormat": "time_series",
          "table": {
            "skipEmptyValues": false
          },
          "tags": {
            "filter": ""
          },
          "timeField": "@timestamp",
          "trigger": {
            "filter": ""
          },
          "triggers": {
            "acknowledged": 2,
            "count": true,
            "minSeverity": 3
          }
        },
        {
          "alias": "SW1SISTEMAADCUIO",
          "bucketAggs": [
            {
              "id": "2",
              "settings": {
                "interval": "auto"
              },
              "type": "date_histogram"
            }
          ],
          "datasource": "Elasticsearch",
          "hide": false,
          "metrics": [
            {
              "id": "1",
              "type": "count"
            }
          ],
          "query": "",
          "refId": "NOM",
          "timeField": "@timestamp"
        }
      ],
      "transparent": true,
      "type": "telconet-grupal-sw"
    },
    {
      "datasource": "-- Mixed --",
      "fieldConfig": {
        "defaults": {},
        "overrides": []
      },
      "gridPos": {
        "h": 10,
        "w": 8,
        "x": 0,
        "y": 12
      },
      "id": 5,
      "options": {
        "seriesCountSize": "sm",
        "showSeriesCount": false,
        "text": "Default value of text input option"
      },
      "pluginVersion": "7.5.3",
      "targets": [
        {
          "alias": "",
          "application": {
            "filter": "A01-Ping"
          },
          "bucketAggs": [
            {
              "id": "2",
              "settings": {
                "interval": "auto"
              },
              "type": "date_histogram"
            }
          ],
          "datasource": "Zabbix54",
          "functions": [
            {
              "$$hashKey": "object:598",
              "def": {
                "category": "Alias",
                "defaultParams": [],
                "name": "setAlias",
                "params": [
                  {
                    "name": "alias",
                    "type": "string"
                  }
                ]
              },
              "params": [
                "ESTADO"
              ],
              "text": "setAlias(ESTADO)"
            }
          ],
          "group": {
            "filter": "EQUIPOS_PAC"
          },
          "host": {
            "filter": "SW1SISTEMABDCUIO"
          },
          "item": {
            "filter": "A11-ICMP ping"
          },
          "metrics": [
            {
              "id": "1",
              "type": "count"
            }
          ],
          "options": {
            "disableDataAlignment": false,
            "showDisabledItems": false,
            "skipEmptyValues": false,
            "useZabbixValueMapping": false
          },
          "proxy": {
            "filter": ""
          },
          "query": "",
          "queryType": 0,
          "refId": "A",
          "resultFormat": "time_series",
          "table": {
            "skipEmptyValues": false
          },
          "tags": {
            "filter": ""
          },
          "timeField": "@timestamp",
          "trigger": {
            "filter": ""
          },
          "triggers": {
            "acknowledged": 2,
            "count": true,
            "minSeverity": 3
          }
        },
        {
          "alias": "",
          "application": {
            "filter": "STF00-Fans"
          },
          "bucketAggs": [
            {
              "id": "2",
              "settings": {
                "interval": "auto"
              },
              "type": "date_histogram"
            }
          ],
          "datasource": "Zabbix54",
          "functions": [
            {
              "$$hashKey": "object:619",
              "def": {
                "category": "Alias",
                "defaultParams": [],
                "name": "setAlias",
                "params": [
                  {
                    "name": "alias",
                    "type": "string"
                  }
                ]
              },
              "params": [
                "ST_FAN"
              ],
              "text": "setAlias(ST_FAN)"
            }
          ],
          "group": {
            "filter": "EQUIPOS_PAC"
          },
          "hide": false,
          "host": {
            "filter": "SW1SISTEMABDCUIO"
          },
          "item": {
            "filter": "Switch#1, Fan#1 STF01- Fan status"
          },
          "metrics": [
            {
              "id": "1",
              "type": "count"
            }
          ],
          "options": {
            "disableDataAlignment": false,
            "showDisabledItems": false,
            "skipEmptyValues": false,
            "useZabbixValueMapping": false
          },
          "proxy": {
            "filter": ""
          },
          "query": "",
          "queryType": 0,
          "refId": "B",
          "resultFormat": "time_series",
          "table": {
            "skipEmptyValues": false
          },
          "tags": {
            "filter": ""
          },
          "timeField": "@timestamp",
          "trigger": {
            "filter": ""
          },
          "triggers": {
            "acknowledged": 2,
            "count": true,
            "minSeverity": 3
          }
        },
        {
          "alias": "",
          "application": {
            "filter": "STC00-CPU"
          },
          "bucketAggs": [
            {
              "id": "2",
              "settings": {
                "interval": "auto"
              },
              "type": "date_histogram"
            }
          ],
          "datasource": "Zabbix54",
          "functions": [
            {
              "$$hashKey": "object:640",
              "def": {
                "category": "Alias",
                "defaultParams": [],
                "name": "setAlias",
                "params": [
                  {
                    "name": "alias",
                    "type": "string"
                  }
                ]
              },
              "params": [
                "CPU"
              ],
              "text": "setAlias(CPU)"
            }
          ],
          "group": {
            "filter": "EQUIPOS_PAC"
          },
          "hide": false,
          "host": {
            "filter": "SW1SISTEMABDCUIO"
          },
          "item": {
            "filter": "STC00-CPU Utilizado 1"
          },
          "metrics": [
            {
              "id": "1",
              "type": "count"
            }
          ],
          "options": {
            "disableDataAlignment": false,
            "showDisabledItems": false,
            "skipEmptyValues": false,
            "useZabbixValueMapping": false
          },
          "proxy": {
            "filter": ""
          },
          "query": "",
          "queryType": 0,
          "refId": "C",
          "resultFormat": "time_series",
          "table": {
            "skipEmptyValues": false
          },
          "tags": {
            "filter": ""
          },
          "timeField": "@timestamp",
          "trigger": {
            "filter": ""
          },
          "triggers": {
            "acknowledged": 2,
            "count": true,
            "minSeverity": 3
          }
        },
        {
          "alias": "",
          "application": {
            "filter": "STM00-Memory"
          },
          "bucketAggs": [
            {
              "id": "2",
              "settings": {
                "interval": "auto"
              },
              "type": "date_histogram"
            }
          ],
          "datasource": "Zabbix54",
          "functions": [
            {
              "$$hashKey": "object:661",
              "def": {
                "category": "Alias",
                "defaultParams": [],
                "name": "setAlias",
                "params": [
                  {
                    "name": "alias",
                    "type": "string"
                  }
                ]
              },
              "params": [
                "RAM"
              ],
              "text": "setAlias(RAM)"
            }
          ],
          "group": {
            "filter": "EQUIPOS_PAC"
          },
          "hide": false,
          "host": {
            "filter": "SW1SISTEMABDCUIO"
          },
          "item": {
            "filter": "Processor: STM02-Memoria Utilizada %"
          },
          "metrics": [
            {
              "id": "1",
              "type": "count"
            }
          ],
          "options": {
            "disableDataAlignment": false,
            "showDisabledItems": false,
            "skipEmptyValues": false,
            "useZabbixValueMapping": false
          },
          "proxy": {
            "filter": ""
          },
          "query": "",
          "queryType": 0,
          "refId": "D",
          "resultFormat": "time_series",
          "table": {
            "skipEmptyValues": false
          },
          "tags": {
            "filter": ""
          },
          "timeField": "@timestamp",
          "trigger": {
            "filter": ""
          },
          "triggers": {
            "acknowledged": 2,
            "count": true,
            "minSeverity": 3
          }
        },
        {
          "alias": "",
          "application": {
            "filter": "A01-Ping"
          },
          "bucketAggs": [
            {
              "id": "2",
              "settings": {
                "interval": "auto"
              },
              "type": "date_histogram"
            }
          ],
          "datasource": "Zabbix54",
          "functions": [
            {
              "$$hashKey": "object:682",
              "def": {
                "category": "Alias",
                "defaultParams": [],
                "name": "setAlias",
                "params": [
                  {
                    "name": "alias",
                    "type": "string"
                  }
                ]
              },
              "params": [
                "TRES"
              ],
              "text": "setAlias(TRES)"
            }
          ],
          "group": {
            "filter": "EQUIPOS_PAC"
          },
          "hide": false,
          "host": {
            "filter": "SW1SISTEMABDCUIO"
          },
          "item": {
            "filter": "A12-ICMP response time"
          },
          "metrics": [
            {
              "id": "1",
              "type": "count"
            }
          ],
          "options": {
            "disableDataAlignment": false,
            "showDisabledItems": false,
            "skipEmptyValues": false,
            "useZabbixValueMapping": false
          },
          "proxy": {
            "filter": ""
          },
          "query": "",
          "queryType": 0,
          "refId": "E",
          "resultFormat": "time_series",
          "table": {
            "skipEmptyValues": false
          },
          "tags": {
            "filter": ""
          },
          "timeField": "@timestamp",
          "trigger": {
            "filter": ""
          },
          "triggers": {
            "acknowledged": 2,
            "count": true,
            "minSeverity": 3
          }
        },
        {
          "alias": "SW1SISTEMABDCUIO",
          "bucketAggs": [
            {
              "id": "2",
              "settings": {
                "interval": "auto"
              },
              "type": "date_histogram"
            }
          ],
          "datasource": "Elasticsearch",
          "hide": false,
          "metrics": [
            {
              "id": "1",
              "type": "count"
            }
          ],
          "query": "",
          "refId": "NOM",
          "timeField": "@timestamp"
        }
      ],
      "transparent": true,
      "type": "telconet-grupal-sw"
    },
    {
      "datasource": "-- Mixed --",
      "fieldConfig": {
        "defaults": {},
        "overrides": []
      },
      "gridPos": {
        "h": 10,
        "w": 8,
        "x": 8,
        "y": 12
      },
      "id": 6,
      "options": {
        "seriesCountSize": "sm",
        "showSeriesCount": false,
        "text": "Default value of text input option"
      },
      "pluginVersion": "7.5.3",
      "targets": [
        {
          "alias": "",
          "application": {
            "filter": "A01-Ping"
          },
          "bucketAggs": [
            {
              "id": "2",
              "settings": {
                "interval": "auto"
              },
              "type": "date_histogram"
            }
          ],
          "datasource": "Zabbix54",
          "functions": [
            {
              "$$hashKey": "object:733",
              "def": {
                "category": "Alias",
                "defaultParams": [],
                "name": "setAlias",
                "params": [
                  {
                    "name": "alias",
                    "type": "string"
                  }
                ]
              },
              "params": [
                "ESTADO"
              ],
              "text": "setAlias(ESTADO)"
            }
          ],
          "group": {
            "filter": "EQUIPOS_PAC"
          },
          "host": {
            "filter": "SW1BOCDCUIO"
          },
          "item": {
            "filter": "A11-ICMP ping"
          },
          "metrics": [
            {
              "id": "1",
              "type": "count"
            }
          ],
          "options": {
            "disableDataAlignment": false,
            "showDisabledItems": false,
            "skipEmptyValues": false,
            "useZabbixValueMapping": false
          },
          "proxy": {
            "filter": ""
          },
          "query": "",
          "queryType": 0,
          "refId": "A",
          "resultFormat": "time_series",
          "table": {
            "skipEmptyValues": false
          },
          "tags": {
            "filter": ""
          },
          "timeField": "@timestamp",
          "trigger": {
            "filter": ""
          },
          "triggers": {
            "acknowledged": 2,
            "count": true,
            "minSeverity": 3
          }
        },
        {
          "alias": "",
          "application": {
            "filter": "STF00-Fans"
          },
          "bucketAggs": [
            {
              "id": "2",
              "settings": {
                "interval": "auto"
              },
              "type": "date_histogram"
            }
          ],
          "datasource": "Zabbix54",
          "functions": [
            {
              "$$hashKey": "object:754",
              "def": {
                "category": "Alias",
                "defaultParams": [],
                "name": "setAlias",
                "params": [
                  {
                    "name": "alias",
                    "type": "string"
                  }
                ]
              },
              "params": [
                "ST_FAN"
              ],
              "text": "setAlias(ST_FAN)"
            }
          ],
          "group": {
            "filter": "EQUIPOS_PAC"
          },
          "hide": false,
          "host": {
            "filter": "SW1BOCDCUIO"
          },
          "item": {
            "filter": "Switch#1, Fan#1 STF01- Fan status"
          },
          "metrics": [
            {
              "id": "1",
              "type": "count"
            }
          ],
          "options": {
            "disableDataAlignment": false,
            "showDisabledItems": false,
            "skipEmptyValues": false,
            "useZabbixValueMapping": false
          },
          "proxy": {
            "filter": ""
          },
          "query": "",
          "queryType": 0,
          "refId": "B",
          "resultFormat": "time_series",
          "table": {
            "skipEmptyValues": false
          },
          "tags": {
            "filter": ""
          },
          "timeField": "@timestamp",
          "trigger": {
            "filter": ""
          },
          "triggers": {
            "acknowledged": 2,
            "count": true,
            "minSeverity": 3
          }
        },
        {
          "alias": "",
          "application": {
            "filter": "STC00-CPU"
          },
          "bucketAggs": [
            {
              "id": "2",
              "settings": {
                "interval": "auto"
              },
              "type": "date_histogram"
            }
          ],
          "datasource": "Zabbix54",
          "functions": [
            {
              "$$hashKey": "object:775",
              "def": {
                "category": "Alias",
                "defaultParams": [],
                "name": "setAlias",
                "params": [
                  {
                    "name": "alias",
                    "type": "string"
                  }
                ]
              },
              "params": [
                "CPU"
              ],
              "text": "setAlias(CPU)"
            }
          ],
          "group": {
            "filter": "EQUIPOS_PAC"
          },
          "hide": false,
          "host": {
            "filter": "SW1BOCDCUIO"
          },
          "item": {
            "filter": "STC00-CPU Utilizado 1"
          },
          "metrics": [
            {
              "id": "1",
              "type": "count"
            }
          ],
          "options": {
            "disableDataAlignment": false,
            "showDisabledItems": false,
            "skipEmptyValues": false,
            "useZabbixValueMapping": false
          },
          "proxy": {
            "filter": ""
          },
          "query": "",
          "queryType": 0,
          "refId": "C",
          "resultFormat": "time_series",
          "table": {
            "skipEmptyValues": false
          },
          "tags": {
            "filter": ""
          },
          "timeField": "@timestamp",
          "trigger": {
            "filter": ""
          },
          "triggers": {
            "acknowledged": 2,
            "count": true,
            "minSeverity": 3
          }
        },
        {
          "alias": "",
          "application": {
            "filter": "STM00-Memory"
          },
          "bucketAggs": [
            {
              "id": "2",
              "settings": {
                "interval": "auto"
              },
              "type": "date_histogram"
            }
          ],
          "datasource": "Zabbix54",
          "functions": [
            {
              "$$hashKey": "object:796",
              "def": {
                "category": "Alias",
                "defaultParams": [],
                "name": "setAlias",
                "params": [
                  {
                    "name": "alias",
                    "type": "string"
                  }
                ]
              },
              "params": [
                "RAM"
              ],
              "text": "setAlias(RAM)"
            }
          ],
          "group": {
            "filter": "EQUIPOS_PAC"
          },
          "hide": false,
          "host": {
            "filter": "SW1BOCDCUIO"
          },
          "item": {
            "filter": "Processor: STM02-Memoria Utilizada %"
          },
          "metrics": [
            {
              "id": "1",
              "type": "count"
            }
          ],
          "options": {
            "disableDataAlignment": false,
            "showDisabledItems": false,
            "skipEmptyValues": false,
            "useZabbixValueMapping": false
          },
          "proxy": {
            "filter": ""
          },
          "query": "",
          "queryType": 0,
          "refId": "D",
          "resultFormat": "time_series",
          "table": {
            "skipEmptyValues": false
          },
          "tags": {
            "filter": ""
          },
          "timeField": "@timestamp",
          "trigger": {
            "filter": ""
          },
          "triggers": {
            "acknowledged": 2,
            "count": true,
            "minSeverity": 3
          }
        },
        {
          "alias": "",
          "application": {
            "filter": "A01-Ping"
          },
          "bucketAggs": [
            {
              "id": "2",
              "settings": {
                "interval": "auto"
              },
              "type": "date_histogram"
            }
          ],
          "datasource": "Zabbix54",
          "functions": [
            {
              "$$hashKey": "object:817",
              "def": {
                "category": "Alias",
                "defaultParams": [],
                "name": "setAlias",
                "params": [
                  {
                    "name": "alias",
                    "type": "string"
                  }
                ]
              },
              "params": [
                "TRES"
              ],
              "text": "setAlias(TRES)"
            }
          ],
          "group": {
            "filter": "EQUIPOS_PAC"
          },
          "hide": false,
          "host": {
            "filter": "SW1BOCDCUIO"
          },
          "item": {
            "filter": "A12-ICMP response time"
          },
          "metrics": [
            {
              "id": "1",
              "type": "count"
            }
          ],
          "options": {
            "disableDataAlignment": false,
            "showDisabledItems": false,
            "skipEmptyValues": false,
            "useZabbixValueMapping": false
          },
          "proxy": {
            "filter": ""
          },
          "query": "",
          "queryType": 0,
          "refId": "E",
          "resultFormat": "time_series",
          "table": {
            "skipEmptyValues": false
          },
          "tags": {
            "filter": ""
          },
          "timeField": "@timestamp",
          "trigger": {
            "filter": ""
          },
          "triggers": {
            "acknowledged": 2,
            "count": true,
            "minSeverity": 3
          }
        },
        {
          "alias": "SW1BOCDCUIO",
          "bucketAggs": [
            {
              "id": "2",
              "settings": {
                "interval": "auto"
              },
              "type": "date_histogram"
            }
          ],
          "datasource": "Elasticsearch",
          "hide": false,
          "metrics": [
            {
              "id": "1",
              "type": "count"
            }
          ],
          "query": "",
          "refId": "NOM",
          "timeField": "@timestamp"
        }
      ],
      "transparent": true,
      "type": "telconet-grupal-sw"
    },
    {
      "datasource": "-- Mixed --",
      "fieldConfig": {
        "defaults": {},
        "overrides": []
      },
      "gridPos": {
        "h": 10,
        "w": 8,
        "x": 16,
        "y": 12
      },
      "id": 9,
      "options": {
        "seriesCountSize": "sm",
        "showSeriesCount": false,
        "text": "Default value of text input option"
      },
      "pluginVersion": "7.5.3",
      "targets": [
        {
          "alias": "",
          "application": {
            "filter": "A01-Ping"
          },
          "bucketAggs": [
            {
              "id": "2",
              "settings": {
                "interval": "auto"
              },
              "type": "date_histogram"
            }
          ],
          "datasource": "Zabbix54",
          "functions": [
            {
              "$$hashKey": "object:868",
              "def": {
                "category": "Alias",
                "defaultParams": [],
                "name": "setAlias",
                "params": [
                  {
                    "name": "alias",
                    "type": "string"
                  }
                ]
              },
              "params": [
                "ESTADO"
              ],
              "text": "setAlias(ESTADO)"
            }
          ],
          "group": {
            "filter": "EQUIPOS_PAC"
          },
          "host": {
            "filter": "SW2BOCDCUIO"
          },
          "item": {
            "filter": "A11-ICMP ping"
          },
          "metrics": [
            {
              "id": "1",
              "type": "count"
            }
          ],
          "options": {
            "disableDataAlignment": false,
            "showDisabledItems": false,
            "skipEmptyValues": false,
            "useZabbixValueMapping": false
          },
          "proxy": {
            "filter": ""
          },
          "query": "",
          "queryType": 0,
          "refId": "A",
          "resultFormat": "time_series",
          "table": {
            "skipEmptyValues": false
          },
          "tags": {
            "filter": ""
          },
          "timeField": "@timestamp",
          "trigger": {
            "filter": ""
          },
          "triggers": {
            "acknowledged": 2,
            "count": true,
            "minSeverity": 3
          }
        },
        {
          "alias": "",
          "application": {
            "filter": "STF00-Fans"
          },
          "bucketAggs": [
            {
              "id": "2",
              "settings": {
                "interval": "auto"
              },
              "type": "date_histogram"
            }
          ],
          "datasource": "Zabbix54",
          "functions": [
            {
              "$$hashKey": "object:889",
              "def": {
                "category": "Alias",
                "defaultParams": [],
                "name": "setAlias",
                "params": [
                  {
                    "name": "alias",
                    "type": "string"
                  }
                ]
              },
              "params": [
                "ST_FAN"
              ],
              "text": "setAlias(ST_FAN)"
            }
          ],
          "group": {
            "filter": "EQUIPOS_PAC"
          },
          "hide": false,
          "host": {
            "filter": "SW2BOCDCUIO"
          },
          "item": {
            "filter": "Switch#1, Fan#1 STF01- Fan status"
          },
          "metrics": [
            {
              "id": "1",
              "type": "count"
            }
          ],
          "options": {
            "disableDataAlignment": false,
            "showDisabledItems": false,
            "skipEmptyValues": false,
            "useZabbixValueMapping": false
          },
          "proxy": {
            "filter": ""
          },
          "query": "",
          "queryType": 0,
          "refId": "B",
          "resultFormat": "time_series",
          "table": {
            "skipEmptyValues": false
          },
          "tags": {
            "filter": ""
          },
          "timeField": "@timestamp",
          "trigger": {
            "filter": ""
          },
          "triggers": {
            "acknowledged": 2,
            "count": true,
            "minSeverity": 3
          }
        },
        {
          "alias": "",
          "application": {
            "filter": "STC00-CPU"
          },
          "bucketAggs": [
            {
              "id": "2",
              "settings": {
                "interval": "auto"
              },
              "type": "date_histogram"
            }
          ],
          "datasource": "Zabbix54",
          "functions": [
            {
              "$$hashKey": "object:910",
              "def": {
                "category": "Alias",
                "defaultParams": [],
                "name": "setAlias",
                "params": [
                  {
                    "name": "alias",
                    "type": "string"
                  }
                ]
              },
              "params": [
                "CPU"
              ],
              "text": "setAlias(CPU)"
            }
          ],
          "group": {
            "filter": "EQUIPOS_PAC"
          },
          "hide": false,
          "host": {
            "filter": "SW2BOCDCUIO"
          },
          "item": {
            "filter": "STC00-CPU Utilizado 1"
          },
          "metrics": [
            {
              "id": "1",
              "type": "count"
            }
          ],
          "options": {
            "disableDataAlignment": false,
            "showDisabledItems": false,
            "skipEmptyValues": false,
            "useZabbixValueMapping": false
          },
          "proxy": {
            "filter": ""
          },
          "query": "",
          "queryType": 0,
          "refId": "C",
          "resultFormat": "time_series",
          "table": {
            "skipEmptyValues": false
          },
          "tags": {
            "filter": ""
          },
          "timeField": "@timestamp",
          "trigger": {
            "filter": ""
          },
          "triggers": {
            "acknowledged": 2,
            "count": true,
            "minSeverity": 3
          }
        },
        {
          "alias": "",
          "application": {
            "filter": "STM00-Memory"
          },
          "bucketAggs": [
            {
              "id": "2",
              "settings": {
                "interval": "auto"
              },
              "type": "date_histogram"
            }
          ],
          "datasource": "Zabbix54",
          "functions": [
            {
              "$$hashKey": "object:931",
              "def": {
                "category": "Alias",
                "defaultParams": [],
                "name": "setAlias",
                "params": [
                  {
                    "name": "alias",
                    "type": "string"
                  }
                ]
              },
              "params": [
                "RAM"
              ],
              "text": "setAlias(RAM)"
            }
          ],
          "group": {
            "filter": "EQUIPOS_PAC"
          },
          "hide": false,
          "host": {
            "filter": "SW2BOCDCUIO"
          },
          "item": {
            "filter": "Processor: STM02-Memoria Utilizada %"
          },
          "metrics": [
            {
              "id": "1",
              "type": "count"
            }
          ],
          "options": {
            "disableDataAlignment": false,
            "showDisabledItems": false,
            "skipEmptyValues": false,
            "useZabbixValueMapping": false
          },
          "proxy": {
            "filter": ""
          },
          "query": "",
          "queryType": 0,
          "refId": "D",
          "resultFormat": "time_series",
          "table": {
            "skipEmptyValues": false
          },
          "tags": {
            "filter": ""
          },
          "timeField": "@timestamp",
          "trigger": {
            "filter": ""
          },
          "triggers": {
            "acknowledged": 2,
            "count": true,
            "minSeverity": 3
          }
        },
        {
          "alias": "",
          "application": {
            "filter": "A01-Ping"
          },
          "bucketAggs": [
            {
              "id": "2",
              "settings": {
                "interval": "auto"
              },
              "type": "date_histogram"
            }
          ],
          "datasource": "Zabbix54",
          "functions": [
            {
              "$$hashKey": "object:952",
              "def": {
                "category": "Alias",
                "defaultParams": [],
                "name": "setAlias",
                "params": [
                  {
                    "name": "alias",
                    "type": "string"
                  }
                ]
              },
              "params": [
                "TRES"
              ],
              "text": "setAlias(TRES)"
            }
          ],
          "group": {
            "filter": "EQUIPOS_PAC"
          },
          "hide": false,
          "host": {
            "filter": "SW2BOCDCUIO"
          },
          "item": {
            "filter": "A12-ICMP response time"
          },
          "metrics": [
            {
              "id": "1",
              "type": "count"
            }
          ],
          "options": {
            "disableDataAlignment": false,
            "showDisabledItems": false,
            "skipEmptyValues": false,
            "useZabbixValueMapping": false
          },
          "proxy": {
            "filter": ""
          },
          "query": "",
          "queryType": 0,
          "refId": "E",
          "resultFormat": "time_series",
          "table": {
            "skipEmptyValues": false
          },
          "tags": {
            "filter": ""
          },
          "timeField": "@timestamp",
          "trigger": {
            "filter": ""
          },
          "triggers": {
            "acknowledged": 2,
            "count": true,
            "minSeverity": 3
          }
        },
        {
          "alias": "SW2BOCDCUIO",
          "bucketAggs": [
            {
              "id": "2",
              "settings": {
                "interval": "auto"
              },
              "type": "date_histogram"
            }
          ],
          "datasource": "Elasticsearch",
          "hide": false,
          "metrics": [
            {
              "id": "1",
              "type": "count"
            }
          ],
          "query": "",
          "refId": "NOM",
          "timeField": "@timestamp"
        }
      ],
      "transparent": true,
      "type": "telconet-grupal-sw"
    }
  ],
  "refresh": "5s",
  "schemaVersion": 27,
  "style": "dark",
  "tags": [],
  "templating": {
    "list": []
  },
  "time": {
    "from": "now-6h",
    "to": "now"
  },
  "timepicker": {},
  "timezone": "",
  "title": "GRUPAL SW",
  "uid": "aKTaOleMz",
  "version": 19
}