{
  "annotations": {
    "list": [
      {
        "builtIn": 1,
        "datasource": "-- Grafana --",
        "enable": true,
        "hide": true,
        "iconColor": "rgba(0, 211, 255, 1)",
        "name": "Annotations & Alerts",
        "type": "dashboard"
      }
    ]
  },
  "editable": true,
  "gnetId": null,
  "graphTooltip": 0,
  "id": 78,
  "iteration": 1626460774970,
  "links": [],
  "panels": [
    {
      "datasource": null,
      "fieldConfig": {
        "defaults": {},
        "overrides": []
      },
      "gridPos": {
        "h": 3,
        "w": 24,
        "x": 0,
        "y": 0
      },
      "id": 9,
      "options": {
        "seriesCountSize": "sm",
        "showSeriesCount": false,
        "text": "Default value of text input option"
      },
      "pluginVersion": "7.5.3",
      "targets": [
        {
          "alias": "",
          "bucketAggs": [
            {
              "id": "2",
              "settings": {
                "interval": "auto"
              },
              "type": "date_histogram"
            }
          ],
          "metrics": [
            {
              "id": "1",
              "type": "count"
            }
          ],
          "query": "",
          "refId": "A",
          "timeField": "@timestamp"
        }
      ],
      "timeFrom": null,
      "timeShift": null,
      "transparent": true,
      "type": "telconet-dash-menu"
    },
    {
      "datasource": null,
      "fieldConfig": {
        "defaults": {},
        "overrides": []
      },
      "gridPos": {
        "h": 18,
        "w": 24,
        "x": 0,
        "y": 3
      },
      "id": 2,
      "options": {
        "seriesCountSize": "sm",
        "showSeriesCount": false,
        "text": "Default value of text input option"
      },
      "pluginVersion": "7.5.3",
      "targets": [
        {
          "alias": "",
          "bucketAggs": [
            {
              "id": "2",
              "settings": {
                "interval": "auto"
              },
              "type": "date_histogram"
            }
          ],
          "metrics": [
            {
              "field": "DATA.VOL_TOT.VALUE",
              "id": "1",
              "type": "avg"
            },
            {
              "field": "DATA.CUR_TOT.VALUE",
              "id": "3",
              "type": "avg"
            },
            {
              "field": "DATA.POW_FACT_TOTAL.VALUE",
              "id": "4",
              "type": "avg"
            },
            {
              "field": "DATA.V_FASE_A.VALUE",
              "id": "5",
              "type": "avg"
            },
            {
              "field": "DATA.V_FASE_B.VALUE",
              "id": "6",
              "type": "avg"
            },
            {
              "field": "DATA.V_FASE_C.VALUE",
              "id": "7",
              "type": "avg"
            },
            {
              "field": "DATA.CUR_FASE_A.VALUE",
              "id": "8",
              "type": "avg"
            },
            {
              "field": "DATA.CUR_FASE_B.VALUE",
              "id": "9",
              "type": "avg"
            },
            {
              "field": "DATA.CUR_FASE_C.VALUE",
              "id": "10",
              "type": "avg"
            },
            {
              "field": "DATA.POW_APPRT_TOTAL.VALUE",
              "id": "11",
              "type": "avg"
            },
            {
              "field": "DATA.POW_REAL_TOTAL.VALUE",
              "id": "12",
              "type": "avg"
            },
            {
              "field": "DATA.MODBUS_ST_DEC.VALUE",
              "id": "13",
              "type": "avg"
            },
            {
              "field": "DATA.POS_DEC.VALUE",
              "id": "14",
              "type": "avg"
            },
            {
              "field": "DATA.GEN_ALM_DEC.VALUE",
              "id": "15",
              "type": "avg"
            }
          ],
          "query": "EQUIPO:\"${EQUIPO}\"",
          "refId": "A",
          "timeField": "@timestamp"
        },
        {
          "alias": "${EQUIPO}",
          "bucketAggs": [
            {
              "id": "2",
              "settings": {
                "interval": "auto"
              },
              "type": "date_histogram"
            }
          ],
          "hide": false,
          "metrics": [
            {
              "id": "1",
              "type": "count"
            }
          ],
          "query": "",
          "refId": "B",
          "timeField": "@timestamp"
        }
      ],
      "transparent": true,
      "type": "pac-dash-tupsin"
    },
    {
      "aliasColors": {
        "A": "semi-dark-blue",
        "B": "#6ed0e0",
        "C": "rgb(255, 255, 255)"
      },
      "bars": false,
      "dashLength": 10,
      "dashes": false,
      "datasource": null,
      "fieldConfig": {
        "defaults": {},
        "overrides": []
      },
      "fill": 1,
      "fillGradient": 0,
      "gridPos": {
        "h": 7,
        "w": 12,
        "x": 0,
        "y": 21
      },
      "hiddenSeries": false,
      "id": 4,
      "legend": {
        "avg": false,
        "current": false,
        "max": false,
        "min": false,
        "show": true,
        "total": false,
        "values": false
      },
      "lines": true,
      "linewidth": 1,
      "nullPointMode": "connected",
      "options": {
        "alertThreshold": true
      },
      "percentage": false,
      "pluginVersion": "7.5.3",
      "pointradius": 2,
      "points": false,
      "renderer": "flot",
      "seriesOverrides": [],
      "spaceLength": 10,
      "stack": false,
      "steppedLine": false,
      "targets": [
        {
          "alias": "A",
          "bucketAggs": [
            {
              "id": "2",
              "settings": {
                "interval": "auto"
              },
              "type": "date_histogram"
            }
          ],
          "metrics": [
            {
              "field": "DATA.V_FASE_A.VALUE",
              "id": "1",
              "settings": {
                "script": "_value*1.73"
              },
              "type": "avg"
            }
          ],
          "query": "EQUIPO:\"${EQUIPO}\"",
          "refId": "A",
          "timeField": "@timestamp"
        },
        {
          "alias": "B",
          "bucketAggs": [
            {
              "id": "2",
              "settings": {
                "interval": "auto"
              },
              "type": "date_histogram"
            }
          ],
          "hide": false,
          "metrics": [
            {
              "field": "DATA.V_FASE_B.VALUE",
              "id": "1",
              "settings": {
                "script": "_value*1.73"
              },
              "type": "avg"
            }
          ],
          "query": "EQUIPO:\"${EQUIPO}\"",
          "refId": "B",
          "timeField": "@timestamp"
        },
        {
          "alias": "C",
          "bucketAggs": [
            {
              "id": "2",
              "settings": {
                "interval": "auto"
              },
              "type": "date_histogram"
            }
          ],
          "hide": false,
          "metrics": [
            {
              "field": "DATA.V_FASE_C.VALUE",
              "id": "1",
              "settings": {
                "script": "_value*1.73"
              },
              "type": "avg"
            }
          ],
          "query": "EQUIPO:\"${EQUIPO}\"",
          "refId": "C",
          "timeField": "@timestamp"
        }
      ],
      "thresholds": [],
      "timeFrom": null,
      "timeRegions": [],
      "timeShift": null,
      "title": "VOLTAJE",
      "tooltip": {
        "shared": true,
        "sort": 0,
        "value_type": "individual"
      },
      "type": "graph",
      "xaxis": {
        "buckets": null,
        "mode": "time",
        "name": null,
        "show": true,
        "values": []
      },
      "yaxes": [
        {
          "format": "short",
          "label": null,
          "logBase": 1,
          "max": null,
          "min": null,
          "show": true
        },
        {
          "format": "short",
          "label": null,
          "logBase": 1,
          "max": null,
          "min": null,
          "show": true
        }
      ],
      "yaxis": {
        "align": false,
        "alignLevel": null
      }
    },
    {
      "aliasColors": {
        "A": "semi-dark-blue",
        "B": "#6ed0e0",
        "C": "rgb(255, 255, 255)"
      },
      "bars": false,
      "dashLength": 10,
      "dashes": false,
      "datasource": null,
      "fieldConfig": {
        "defaults": {},
        "overrides": []
      },
      "fill": 1,
      "fillGradient": 0,
      "gridPos": {
        "h": 7,
        "w": 12,
        "x": 12,
        "y": 21
      },
      "hiddenSeries": false,
      "id": 5,
      "legend": {
        "avg": false,
        "current": false,
        "max": false,
        "min": false,
        "show": true,
        "total": false,
        "values": false
      },
      "lines": true,
      "linewidth": 1,
      "nullPointMode": "connected",
      "options": {
        "alertThreshold": true
      },
      "percentage": false,
      "pluginVersion": "7.5.3",
      "pointradius": 2,
      "points": false,
      "renderer": "flot",
      "seriesOverrides": [],
      "spaceLength": 10,
      "stack": false,
      "steppedLine": false,
      "targets": [
        {
          "alias": "A",
          "bucketAggs": [
            {
              "id": "2",
              "settings": {
                "interval": "auto"
              },
              "type": "date_histogram"
            }
          ],
          "metrics": [
            {
              "field": "DATA.CUR_FASE_A.VALUE",
              "id": "1",
              "settings": {},
              "type": "avg"
            }
          ],
          "query": "EQUIPO:\"${EQUIPO}\"",
          "refId": "A",
          "timeField": "@timestamp"
        },
        {
          "alias": "B",
          "bucketAggs": [
            {
              "id": "2",
              "settings": {
                "interval": "auto"
              },
              "type": "date_histogram"
            }
          ],
          "hide": false,
          "metrics": [
            {
              "field": "DATA.CUR_FASE_B.VALUE",
              "id": "1",
              "settings": {},
              "type": "avg"
            }
          ],
          "query": "EQUIPO:\"${EQUIPO}\"",
          "refId": "B",
          "timeField": "@timestamp"
        },
        {
          "alias": "C",
          "bucketAggs": [
            {
              "id": "2",
              "settings": {
                "interval": "auto"
              },
              "type": "date_histogram"
            }
          ],
          "hide": false,
          "metrics": [
            {
              "field": "DATA.CUR_FASE_C.VALUE",
              "id": "1",
              "settings": {},
              "type": "avg"
            }
          ],
          "query": "EQUIPO:\"${EQUIPO}\"",
          "refId": "C",
          "timeField": "@timestamp"
        }
      ],
      "thresholds": [],
      "timeFrom": null,
      "timeRegions": [],
      "timeShift": null,
      "title": "CORRIENTE",
      "tooltip": {
        "shared": true,
        "sort": 0,
        "value_type": "individual"
      },
      "type": "graph",
      "xaxis": {
        "buckets": null,
        "mode": "time",
        "name": null,
        "show": true,
        "values": []
      },
      "yaxes": [
        {
          "format": "short",
          "label": null,
          "logBase": 1,
          "max": null,
          "min": null,
          "show": true
        },
        {
          "format": "short",
          "label": null,
          "logBase": 1,
          "max": null,
          "min": null,
          "show": true
        }
      ],
      "yaxis": {
        "align": false,
        "alignLevel": null
      }
    },
    {
      "aliasColors": {
        "A": "semi-dark-blue",
        "B": "#6ed0e0",
        "C": "rgb(255, 255, 255)",
        "Kw": "semi-dark-blue"
      },
      "bars": false,
      "dashLength": 10,
      "dashes": false,
      "datasource": null,
      "fieldConfig": {
        "defaults": {},
        "overrides": []
      },
      "fill": 1,
      "fillGradient": 0,
      "gridPos": {
        "h": 7,
        "w": 12,
        "x": 0,
        "y": 28
      },
      "hiddenSeries": false,
      "id": 6,
      "legend": {
        "avg": false,
        "current": false,
        "max": false,
        "min": false,
        "show": true,
        "total": false,
        "values": false
      },
      "lines": true,
      "linewidth": 1,
      "nullPointMode": "connected",
      "options": {
        "alertThreshold": true
      },
      "percentage": false,
      "pluginVersion": "7.5.3",
      "pointradius": 2,
      "points": false,
      "renderer": "flot",
      "seriesOverrides": [],
      "spaceLength": 10,
      "stack": false,
      "steppedLine": false,
      "targets": [
        {
          "alias": "Kw",
          "bucketAggs": [
            {
              "id": "2",
              "settings": {
                "interval": "auto"
              },
              "type": "date_histogram"
            }
          ],
          "metrics": [
            {
              "field": "DATA.POW_REAL_TOTAL.VALUE",
              "id": "1",
              "settings": {},
              "type": "avg"
            }
          ],
          "query": "EQUIPO:\"${EQUIPO}\"",
          "refId": "A",
          "timeField": "@timestamp"
        }
      ],
      "thresholds": [],
      "timeFrom": null,
      "timeRegions": [],
      "timeShift": null,
      "title": "POTENCIA REAL",
      "tooltip": {
        "shared": true,
        "sort": 0,
        "value_type": "individual"
      },
      "type": "graph",
      "xaxis": {
        "buckets": null,
        "mode": "time",
        "name": null,
        "show": true,
        "values": []
      },
      "yaxes": [
        {
          "format": "short",
          "label": null,
          "logBase": 1,
          "max": null,
          "min": null,
          "show": true
        },
        {
          "format": "short",
          "label": null,
          "logBase": 1,
          "max": null,
          "min": null,
          "show": true
        }
      ],
      "yaxis": {
        "align": false,
        "alignLevel": null
      }
    },
    {
      "aliasColors": {
        "A": "semi-dark-blue",
        "B": "#6ed0e0",
        "C": "rgb(255, 255, 255)",
        "Kva": "super-light-blue",
        "Kw": "semi-dark-blue"
      },
      "bars": false,
      "dashLength": 10,
      "dashes": false,
      "datasource": null,
      "fieldConfig": {
        "defaults": {},
        "overrides": []
      },
      "fill": 1,
      "fillGradient": 0,
      "gridPos": {
        "h": 7,
        "w": 12,
        "x": 12,
        "y": 28
      },
      "hiddenSeries": false,
      "id": 7,
      "legend": {
        "avg": false,
        "current": false,
        "max": false,
        "min": false,
        "show": true,
        "total": false,
        "values": false
      },
      "lines": true,
      "linewidth": 1,
      "nullPointMode": "connected",
      "options": {
        "alertThreshold": true
      },
      "percentage": false,
      "pluginVersion": "7.5.3",
      "pointradius": 2,
      "points": false,
      "renderer": "flot",
      "seriesOverrides": [],
      "spaceLength": 10,
      "stack": false,
      "steppedLine": false,
      "targets": [
        {
          "alias": "Kva",
          "bucketAggs": [
            {
              "id": "2",
              "settings": {
                "interval": "auto"
              },
              "type": "date_histogram"
            }
          ],
          "metrics": [
            {
              "field": "DATA.POW_APPRT_TOTAL.VALUE",
              "id": "1",
              "settings": {},
              "type": "avg"
            }
          ],
          "query": "EQUIPO:\"${EQUIPO}\"",
          "refId": "A",
          "timeField": "@timestamp"
        }
      ],
      "thresholds": [],
      "timeFrom": null,
      "timeRegions": [],
      "timeShift": null,
      "title": "POTENCIA APARENTE",
      "tooltip": {
        "shared": true,
        "sort": 0,
        "value_type": "individual"
      },
      "type": "graph",
      "xaxis": {
        "buckets": null,
        "mode": "time",
        "name": null,
        "show": true,
        "values": []
      },
      "yaxes": [
        {
          "format": "short",
          "label": null,
          "logBase": 1,
          "max": null,
          "min": null,
          "show": true
        },
        {
          "format": "short",
          "label": null,
          "logBase": 1,
          "max": null,
          "min": null,
          "show": true
        }
      ],
      "yaxis": {
        "align": false,
        "alignLevel": null
      }
    }
  ],
  "schemaVersion": 27,
  "style": "dark",
  "tags": [],
  "templating": {
    "list": [
      {
        "allValue": null,
        "current": {
          "selected": false,
          "text": "T-UPS-IN-01B-0",
          "value": "T-UPS-IN-01B-0"
        },
        "description": null,
        "error": null,
        "hide": 0,
        "includeAll": false,
        "label": null,
        "multi": false,
        "name": "EQUIPO",
        "options": [
          {
            "selected": true,
            "text": "T-UPS-IN-01B-0",
            "value": "T-UPS-IN-01B-0"
          },
          {
            "selected": false,
            "text": "T-UPS-IN-01B-1",
            "value": "T-UPS-IN-01B-1"
          },
          {
            "selected": false,
            "text": "T-UPS-IN-01B-2",
            "value": "T-UPS-IN-01B-2"
          },
          {
            "selected": false,
            "text": "T-UPS-IN-01B-3",
            "value": "T-UPS-IN-01B-3"
          },
          {
            "selected": false,
            "text": "T-UPS-IN-01B-4",
            "value": "T-UPS-IN-01B-4"
          },
          {
            "selected": false,
            "text": "T-UPS-IN-01B-5",
            "value": "T-UPS-IN-01B-5"
          },
          {
            "selected": false,
            "text": "T-UPS-IN-01B-6",
            "value": "T-UPS-IN-01B-6"
          }
        ],
        "query": "T-UPS-IN-01B-0,T-UPS-IN-01B-1,T-UPS-IN-01B-2,T-UPS-IN-01B-3,T-UPS-IN-01B-4,T-UPS-IN-01B-5,T-UPS-IN-01B-6",
        "queryValue": "",
        "skipUrlSync": false,
        "type": "custom"
      }
    ]
  },
  "time": {
    "from": "now-6h",
    "to": "now"
  },
  "timepicker": {},
  "timezone": "",
  "title": "T-UPS-IN-01B",
  "uid": "qV03X6uGz",
  "version": 3
}