{
  "annotations": {
    "list": [
      {
        "builtIn": 1,
        "datasource": "-- Grafana --",
        "enable": true,
        "hide": true,
        "iconColor": "rgba(0, 211, 255, 1)",
        "name": "Annotations & Alerts",
        "type": "dashboard"
      }
    ]
  },
  "editable": true,
  "gnetId": null,
  "graphTooltip": 0,
  "id": 52,
  "iteration": 1626460075726,
  "links": [],
  "panels": [
    {
      "datasource": null,
      "fieldConfig": {
        "defaults": {},
        "overrides": []
      },
      "gridPos": {
        "h": 2,
        "w": 24,
        "x": 0,
        "y": 0
      },
      "id": 12,
      "options": {
        "seriesCountSize": "sm",
        "showSeriesCount": false,
        "text": "Default value of text input option"
      },
      "pluginVersion": "7.5.3",
      "targets": [
        {
          "alias": "",
          "bucketAggs": [
            {
              "id": "2",
              "settings": {
                "interval": "auto"
              },
              "type": "date_histogram"
            }
          ],
          "metrics": [
            {
              "id": "1",
              "type": "count"
            }
          ],
          "query": "",
          "refId": "A",
          "timeField": "@timestamp"
        }
      ],
      "transparent": true,
      "type": "telconet-dash-menu"
    },
    {
      "datasource": null,
      "fieldConfig": {
        "defaults": {},
        "overrides": []
      },
      "gridPos": {
        "h": 20,
        "w": 24,
        "x": 0,
        "y": 2
      },
      "id": 2,
      "options": {
        "seriesCountSize": "sm",
        "showSeriesCount": false,
        "text": "Default value of text input option"
      },
      "pluginVersion": "7.5.3",
      "targets": [
        {
          "alias": "",
          "bucketAggs": [
            {
              "field": "@timestamp",
              "id": "2",
              "settings": {
                "interval": "auto"
              },
              "type": "date_histogram"
            }
          ],
          "metrics": [
            {
              "field": "DATA.DELI_AIR_TEMP.VALUE",
              "id": "1",
              "settings": {
                "script": "_value/10"
              },
              "type": "avg"
            },
            {
              "field": "DATA.ROOM_TEMP.VALUE",
              "id": "3",
              "settings": {
                "script": "_value/10"
              },
              "type": "avg"
            },
            {
              "field": "DATA.ROOM_REL_HUM.VALUE",
              "id": "4",
              "settings": {
                "script": "_value/10"
              },
              "type": "avg"
            },
            {
              "field": "DATA.COLD_WAT_VALV.VALUE",
              "id": "5",
              "settings": {},
              "type": "avg"
            },
            {
              "field": "DATA.UNIT_RUN_ALARM.VALUE",
              "id": "6",
              "type": "avg"
            },
            {
              "field": "DATA.UNIT_ALARM.VALUE",
              "id": "7",
              "type": "avg"
            },
            {
              "field": "DATA.FILTER_ALARM.VALUE",
              "id": "8",
              "type": "avg"
            },
            {
              "field": "DATA.FLOODING_ALARM.VALUE",
              "id": "9",
              "type": "avg"
            },
            {
              "field": "DATA.HEAT_OVER_ALARM.VALUE",
              "id": "10",
              "type": "avg"
            },
            {
              "field": "DATA.LOSS_OF_AIR.VALUE",
              "id": "11",
              "type": "avg"
            },
            {
              "field": "DATA.SMOKE_FIRE_ALARM.VALUE",
              "id": "12",
              "type": "avg"
            },
            {
              "field": "DATA.SYS_ON.VALUE",
              "id": "13",
              "type": "avg"
            }
          ],
          "query": "EQUIPO:\"${nombre}\"",
          "refId": "A",
          "timeField": "@timestamp"
        },
        {
          "alias": "TEMP_ROOM",
          "bucketAggs": [
            {
              "id": "2",
              "settings": {
                "interval": "auto"
              },
              "type": "date_histogram"
            }
          ],
          "hide": false,
          "metrics": [
            {
              "field": "DATA.ROOM_TEMP.VALUE",
              "id": "1",
              "settings": {
                "script": "_value/10"
              },
              "type": "avg"
            }
          ],
          "query": "DATA.SYS_ON.VALUE:1",
          "refId": "B",
          "timeField": "@timestamp"
        },
        {
          "alias": "${nombre}",
          "bucketAggs": [
            {
              "id": "2",
              "settings": {
                "interval": "auto"
              },
              "type": "date_histogram"
            }
          ],
          "hide": false,
          "metrics": [
            {
              "id": "1",
              "type": "count"
            }
          ],
          "query": "",
          "refId": "C",
          "timeField": "@timestamp"
        }
      ],
      "transparent": true,
      "type": "pac-uma-7"
    },
    {
      "aliasColors": {
        "ESTADO": "dark-green",
        "T. RET": "dark-blue",
        "T. SUM": "rgb(5, 219, 247)"
      },
      "bars": false,
      "dashLength": 10,
      "dashes": false,
      "datasource": null,
      "fieldConfig": {
        "defaults": {},
        "overrides": []
      },
      "fill": 1,
      "fillGradient": 1,
      "gridPos": {
        "h": 7,
        "w": 12,
        "x": 0,
        "y": 22
      },
      "hiddenSeries": false,
      "id": 4,
      "legend": {
        "avg": false,
        "current": false,
        "max": false,
        "min": false,
        "show": true,
        "total": false,
        "values": false
      },
      "lines": true,
      "linewidth": 2,
      "nullPointMode": "connected",
      "options": {
        "alertThreshold": true
      },
      "percentage": false,
      "pluginVersion": "7.5.3",
      "pointradius": 2,
      "points": false,
      "renderer": "flot",
      "seriesOverrides": [],
      "spaceLength": 10,
      "stack": false,
      "steppedLine": false,
      "targets": [
        {
          "alias": "T. SUM",
          "bucketAggs": [
            {
              "field": "@timestamp",
              "id": "2",
              "settings": {
                "interval": "auto"
              },
              "type": "date_histogram"
            }
          ],
          "metrics": [
            {
              "field": "DATA.DELI_AIR_TEMP.VALUE",
              "id": "1",
              "settings": {
                "script": "_value/10"
              },
              "type": "avg"
            }
          ],
          "query": "EQUIPO:\"${nombre}\"",
          "refId": "A",
          "timeField": "@timestamp"
        },
        {
          "alias": "T. RET",
          "bucketAggs": [
            {
              "id": "2",
              "settings": {
                "interval": "auto"
              },
              "type": "date_histogram"
            }
          ],
          "hide": false,
          "metrics": [
            {
              "field": "DATA.ROOM_TEMP.VALUE",
              "id": "1",
              "settings": {
                "script": "_value/10"
              },
              "type": "avg"
            }
          ],
          "query": "EQUIPO:\"${nombre}\"",
          "refId": "B",
          "timeField": "@timestamp"
        },
        {
          "alias": "ESTADO",
          "bucketAggs": [
            {
              "id": "2",
              "settings": {
                "interval": "auto"
              },
              "type": "date_histogram"
            }
          ],
          "hide": false,
          "metrics": [
            {
              "field": "DATA.SYS_ON.VALUE",
              "id": "1",
              "settings": {
                "script": "_value*5"
              },
              "type": "avg"
            }
          ],
          "query": "EQUIPO:\"${nombre}\"",
          "refId": "C",
          "timeField": "@timestamp"
        }
      ],
      "thresholds": [],
      "timeFrom": null,
      "timeRegions": [],
      "timeShift": null,
      "title": "TEMPERATURAS",
      "tooltip": {
        "shared": true,
        "sort": 0,
        "value_type": "individual"
      },
      "type": "graph",
      "xaxis": {
        "buckets": null,
        "mode": "time",
        "name": null,
        "show": true,
        "values": []
      },
      "yaxes": [
        {
          "$$hashKey": "object:131",
          "format": "short",
          "label": null,
          "logBase": 1,
          "max": null,
          "min": null,
          "show": true
        },
        {
          "$$hashKey": "object:132",
          "format": "short",
          "label": null,
          "logBase": 1,
          "max": null,
          "min": null,
          "show": true
        }
      ],
      "yaxis": {
        "align": false,
        "alignLevel": null
      }
    },
    {
      "aliasColors": {
        "%": "light-blue"
      },
      "bars": false,
      "dashLength": 10,
      "dashes": false,
      "datasource": null,
      "fieldConfig": {
        "defaults": {},
        "overrides": []
      },
      "fill": 1,
      "fillGradient": 0,
      "gridPos": {
        "h": 7,
        "w": 12,
        "x": 12,
        "y": 22
      },
      "hiddenSeries": false,
      "id": 6,
      "legend": {
        "avg": false,
        "current": false,
        "max": false,
        "min": false,
        "show": true,
        "total": false,
        "values": false
      },
      "lines": true,
      "linewidth": 2,
      "nullPointMode": "connected",
      "options": {
        "alertThreshold": true
      },
      "percentage": false,
      "pluginVersion": "7.5.3",
      "pointradius": 2,
      "points": false,
      "renderer": "flot",
      "seriesOverrides": [],
      "spaceLength": 10,
      "stack": false,
      "steppedLine": false,
      "targets": [
        {
          "alias": "%",
          "bucketAggs": [
            {
              "id": "2",
              "settings": {
                "interval": "auto"
              },
              "type": "date_histogram"
            }
          ],
          "metrics": [
            {
              "field": "DATA.ROOM_REL_HUM.VALUE",
              "id": "1",
              "settings": {
                "script": "_value/10"
              },
              "type": "avg"
            }
          ],
          "query": "EQUIPO:\"${nombre}\"",
          "refId": "A",
          "timeField": "@timestamp"
        }
      ],
      "thresholds": [],
      "timeFrom": null,
      "timeRegions": [],
      "timeShift": null,
      "title": "HUMEDAD RELATIVA",
      "tooltip": {
        "shared": true,
        "sort": 0,
        "value_type": "individual"
      },
      "type": "graph",
      "xaxis": {
        "buckets": null,
        "mode": "time",
        "name": null,
        "show": true,
        "values": []
      },
      "yaxes": [
        {
          "$$hashKey": "object:290",
          "format": "short",
          "label": null,
          "logBase": 1,
          "max": null,
          "min": null,
          "show": true
        },
        {
          "$$hashKey": "object:291",
          "format": "short",
          "label": null,
          "logBase": 1,
          "max": null,
          "min": null,
          "show": true
        }
      ],
      "yaxis": {
        "align": false,
        "alignLevel": null
      }
    },
    {
      "aliasColors": {
        "VALVULA": "semi-dark-blue"
      },
      "bars": false,
      "dashLength": 10,
      "dashes": false,
      "datasource": null,
      "fieldConfig": {
        "defaults": {},
        "overrides": []
      },
      "fill": 1,
      "fillGradient": 0,
      "gridPos": {
        "h": 7,
        "w": 12,
        "x": 0,
        "y": 29
      },
      "hiddenSeries": false,
      "id": 8,
      "legend": {
        "avg": false,
        "current": false,
        "max": false,
        "min": false,
        "show": true,
        "total": false,
        "values": false
      },
      "lines": true,
      "linewidth": 2,
      "nullPointMode": "connected",
      "options": {
        "alertThreshold": true
      },
      "percentage": false,
      "pluginVersion": "7.5.3",
      "pointradius": 2,
      "points": false,
      "renderer": "flot",
      "seriesOverrides": [],
      "spaceLength": 10,
      "stack": false,
      "steppedLine": false,
      "targets": [
        {
          "alias": "VALVULA",
          "bucketAggs": [
            {
              "id": "2",
              "settings": {
                "interval": "auto"
              },
              "type": "date_histogram"
            }
          ],
          "metrics": [
            {
              "field": "DATA.COLD_WAT_VALV.VALUE",
              "id": "1",
              "settings": {
                "script": "_value/10"
              },
              "type": "avg"
            }
          ],
          "query": "EQUIPO:\"${nombre}\"",
          "refId": "A",
          "timeField": "@timestamp"
        }
      ],
      "thresholds": [],
      "timeFrom": null,
      "timeRegions": [],
      "timeShift": null,
      "title": "VALVULA DE AGUA FRIA",
      "tooltip": {
        "shared": true,
        "sort": 0,
        "value_type": "individual"
      },
      "type": "graph",
      "xaxis": {
        "buckets": null,
        "mode": "time",
        "name": null,
        "show": true,
        "values": []
      },
      "yaxes": [
        {
          "$$hashKey": "object:533",
          "format": "short",
          "label": null,
          "logBase": 1,
          "max": null,
          "min": null,
          "show": true
        },
        {
          "$$hashKey": "object:534",
          "format": "short",
          "label": null,
          "logBase": 1,
          "max": null,
          "min": null,
          "show": true
        }
      ],
      "yaxis": {
        "align": false,
        "alignLevel": null
      }
    },
    {
      "aliasColors": {
        "T.ROOM": "rgb(251, 252, 252)"
      },
      "bars": false,
      "dashLength": 10,
      "dashes": false,
      "datasource": null,
      "fieldConfig": {
        "defaults": {},
        "overrides": []
      },
      "fill": 1,
      "fillGradient": 0,
      "gridPos": {
        "h": 7,
        "w": 12,
        "x": 12,
        "y": 29
      },
      "hiddenSeries": false,
      "id": 10,
      "legend": {
        "avg": false,
        "current": false,
        "max": false,
        "min": false,
        "show": true,
        "total": false,
        "values": false
      },
      "lines": true,
      "linewidth": 2,
      "nullPointMode": "connected",
      "options": {
        "alertThreshold": true
      },
      "percentage": false,
      "pluginVersion": "7.5.3",
      "pointradius": 2,
      "points": false,
      "renderer": "flot",
      "seriesOverrides": [],
      "spaceLength": 10,
      "stack": false,
      "steppedLine": false,
      "targets": [
        {
          "alias": "T.ROOM",
          "bucketAggs": [
            {
              "id": "2",
              "settings": {
                "interval": "auto"
              },
              "type": "date_histogram"
            }
          ],
          "metrics": [
            {
              "field": "DATA.ROOM_TEMP.VALUE",
              "id": "1",
              "settings": {
                "script": "_value/10"
              },
              "type": "avg"
            }
          ],
          "query": "DATA.SYS_ON.VALUE:1",
          "refId": "A",
          "timeField": "@timestamp"
        }
      ],
      "thresholds": [],
      "timeFrom": null,
      "timeRegions": [],
      "timeShift": null,
      "title": "TEMP. CUARTO",
      "tooltip": {
        "shared": true,
        "sort": 0,
        "value_type": "individual"
      },
      "type": "graph",
      "xaxis": {
        "buckets": null,
        "mode": "time",
        "name": null,
        "show": true,
        "values": []
      },
      "yaxes": [
        {
          "$$hashKey": "object:618",
          "format": "short",
          "label": null,
          "logBase": 1,
          "max": null,
          "min": null,
          "show": true
        },
        {
          "$$hashKey": "object:619",
          "format": "short",
          "label": null,
          "logBase": 1,
          "max": null,
          "min": null,
          "show": true
        }
      ],
      "yaxis": {
        "align": false,
        "alignLevel": null
      }
    }
  ],
  "refresh": false,
  "schemaVersion": 27,
  "style": "dark",
  "tags": [],
  "templating": {
    "list": [
      {
        "allValue": null,
        "current": {
          "selected": false,
          "text": "2/UMA-1",
          "value": "2/UMA-1"
        },
        "description": null,
        "error": null,
        "hide": 0,
        "includeAll": false,
        "label": "EQUIPO",
        "multi": false,
        "name": "nombre",
        "options": [
          {
            "selected": true,
            "text": "2/UMA-1",
            "value": "2/UMA-1"
          },
          {
            "selected": false,
            "text": "2/UMA-2",
            "value": "2/UMA-2"
          },
          {
            "selected": false,
            "text": "2/UMA-3",
            "value": "2/UMA-3"
          },
          {
            "selected": false,
            "text": "2/UMA-4",
            "value": "2/UMA-4"
          },
          {
            "selected": false,
            "text": "2/UMA-5",
            "value": "2/UMA-5"
          },
          {
            "selected": false,
            "text": "2/UMA-6",
            "value": "2/UMA-6"
          },
          {
            "selected": false,
            "text": "2/UMA-7",
            "value": "2/UMA-7"
          },
          {
            "selected": false,
            "text": "2/UMA-8",
            "value": "2/UMA-8"
          },
          {
            "selected": false,
            "text": "2/UMA-9",
            "value": "2/UMA-9"
          },
          {
            "selected": false,
            "text": "2/UMA-10",
            "value": "2/UMA-10"
          }
        ],
        "query": "2/UMA-1,2/UMA-2,2/UMA-3,2/UMA-4,2/UMA-5,2/UMA-6,2/UMA-7,2/UMA-8,2/UMA-9,2/UMA-10",
        "queryValue": "",
        "skipUrlSync": false,
        "type": "custom"
      }
    ]
  },
  "time": {
    "from": "now-6h",
    "to": "now"
  },
  "timepicker": {},
  "timezone": "",
  "title": "UMA",
  "uid": "2VQ6kkuMz",
  "version": 3
}